{
  "artifacts": [],
  "command": "experiment",
  "experiment": {
    "base_dir": "/projects/p003/p_sprachkultur/nphilipp/deep_learning",
    "dependencies": [
      "numpy==1.17.3",
      "sacred==0.8.2",
      "scipy==1.3.1",
      "tensorflow==2.3.1"
    ],
    "id": "9",
    "mainfile": "intensifiers.py",
    "name": "intensifiers",
    "repositories": [
      {
        "commit": "fedbfd3d705401dce4fca0f020d3ecdff9487213",
        "dirty": false,
        "url": "git@github.com:jnphilipp/deep_learning-ingredients.git"
      },
      {
        "commit": "fedbfd3d705401dce4fca0f020d3ecdff9487213",
        "dirty": false,
        "url": "git@github.com:jnphilipp/deep_learning-ingredients.git"
      },
      {
        "commit": "fedbfd3d705401dce4fca0f020d3ecdff9487213",
        "dirty": false,
        "url": "git@github.com:jnphilipp/deep_learning-ingredients.git"
      },
      {
        "commit": "fedbfd3d705401dce4fca0f020d3ecdff9487213",
        "dirty": false,
        "url": "git@github.com:jnphilipp/deep_learning-ingredients.git"
      },
      {
        "commit": "fedbfd3d705401dce4fca0f020d3ecdff9487213",
        "dirty": false,
        "url": "git@github.com:jnphilipp/deep_learning-ingredients.git"
      },
      {
        "commit": "fedbfd3d705401dce4fca0f020d3ecdff9487213",
        "dirty": false,
        "url": "git@github.com:jnphilipp/deep_learning-ingredients.git"
      },
      {
        "commit": "fedbfd3d705401dce4fca0f020d3ecdff9487213",
        "dirty": false,
        "url": "git@github.com:jnphilipp/deep_learning-ingredients.git"
      },
      {
        "commit": "fedbfd3d705401dce4fca0f020d3ecdff9487213",
        "dirty": false,
        "url": "git@github.com:jnphilipp/deep_learning-ingredients.git"
      },
      {
        "commit": "fedbfd3d705401dce4fca0f020d3ecdff9487213",
        "dirty": false,
        "url": "git@github.com:jnphilipp/deep_learning-ingredients.git"
      },
      {
        "commit": "fedbfd3d705401dce4fca0f020d3ecdff9487213",
        "dirty": false,
        "url": "git@github.com:jnphilipp/deep_learning-ingredients.git"
      },
      {
        "commit": "fedbfd3d705401dce4fca0f020d3ecdff9487213",
        "dirty": false,
        "url": "git@github.com:jnphilipp/deep_learning-ingredients.git"
      },
      {
        "commit": "fedbfd3d705401dce4fca0f020d3ecdff9487213",
        "dirty": false,
        "url": "git@github.com:jnphilipp/deep_learning-ingredients.git"
      },
      {
        "commit": "fedbfd3d705401dce4fca0f020d3ecdff9487213",
        "dirty": false,
        "url": "git@github.com:jnphilipp/deep_learning-ingredients.git"
      },
      {
        "commit": "fedbfd3d705401dce4fca0f020d3ecdff9487213",
        "dirty": false,
        "url": "git@github.com:jnphilipp/deep_learning-ingredients.git"
      },
      {
        "commit": "fedbfd3d705401dce4fca0f020d3ecdff9487213",
        "dirty": false,
        "url": "git@github.com:jnphilipp/deep_learning-ingredients.git"
      },
      {
        "commit": "fedbfd3d705401dce4fca0f020d3ecdff9487213",
        "dirty": false,
        "url": "git@github.com:jnphilipp/deep_learning-ingredients.git"
      },
      {
        "commit": "af50e954478e4d93835792f121efff5d88d2f84b",
        "dirty": false,
        "url": "https://git.informatik.uni-leipzig.de/mam10bsk/deep_learning.git"
      },
      {
        "commit": "fedbfd3d705401dce4fca0f020d3ecdff9487213",
        "dirty": false,
        "url": "git@github.com:jnphilipp/deep_learning-ingredients.git"
      },
      {
        "commit": "fedbfd3d705401dce4fca0f020d3ecdff9487213",
        "dirty": false,
        "url": "git@github.com:jnphilipp/deep_learning-ingredients.git"
      },
      {
        "commit": "fedbfd3d705401dce4fca0f020d3ecdff9487213",
        "dirty": false,
        "url": "git@github.com:jnphilipp/deep_learning-ingredients.git"
      },
      {
        "commit": "fedbfd3d705401dce4fca0f020d3ecdff9487213",
        "dirty": false,
        "url": "git@github.com:jnphilipp/deep_learning-ingredients.git"
      },
      {
        "commit": "fedbfd3d705401dce4fca0f020d3ecdff9487213",
        "dirty": false,
        "url": "git@github.com:jnphilipp/deep_learning-ingredients.git"
      },
      {
        "commit": "fedbfd3d705401dce4fca0f020d3ecdff9487213",
        "dirty": false,
        "url": "git@github.com:jnphilipp/deep_learning-ingredients.git"
      }
    ],
    "sources": [
      [
        "ingredients/__init__.py",
        "_sources/__init___7d91a7de1fd8bcffeaba47c8b54252bd.py"
      ],
      [
        "ingredients/callbacks/__init__.py",
        "_sources/__init___febf842b0cd3dc118cf6944bc2dfbd16.py"
      ],
      [
        "ingredients/callbacks/core.py",
        "_sources/core_d7e87f79359680aac1452758fab727d3.py"
      ],
      [
        "ingredients/callbacks/print_sample_prediction.py",
        "_sources/print_sample_prediction_fc2ae2a2b8fb8d11eeb52bf6a0a9ecf5.py"
      ],
      [
        "ingredients/callbacks/sacred_metrics_logging.py",
        "_sources/sacred_metrics_logging_0266aa47deb0bf0207ac33bc4e37c0da.py"
      ],
      [
        "ingredients/callbacks/weights_logging.py",
        "_sources/weights_logging_02beec3ebc0c1f01e56d987df01efa4d.py"
      ],
      [
        "ingredients/datasets/__init__.py",
        "_sources/__init___e0c73d77a3a89e46164c22dbd3e7f567.py"
      ],
      [
        "ingredients/datasets/csv.py",
        "_sources/csv_03f77076c09d4c2572426487fb54ef76.py"
      ],
      [
        "ingredients/datasets/images.py",
        "_sources/images_18dfe024729b13e0fe9903931ebb0cc2.py"
      ],
      [
        "ingredients/datasets/json.py",
        "_sources/json_5fde12bd0ccffc2cf146a44694e2b7b8.py"
      ],
      [
        "ingredients/datasets/keras.py",
        "_sources/keras_8be24233d9e0874652dff76b02e4ae6f.py"
      ],
      [
        "ingredients/datasets/texts.py",
        "_sources/texts_d850ee501020eb7c1af2fb12a36242a1.py"
      ],
      [
        "ingredients/decorators.py",
        "_sources/decorators_b7c89d08b61733db8a1ce88cc9d9d2a8.py"
      ],
      [
        "ingredients/experiments.py",
        "_sources/experiments_35be18ee53a51087c8d1990765e6e012.py"
      ],
      [
        "ingredients/history.py",
        "_sources/history_c21145f4eb9ea125d0b639766a449ae6.py"
      ],
      [
        "ingredients/models/__init__.py",
        "_sources/__init___d2b0233f3107fb6540d8d21b501ce456.py"
      ],
      [
        "ingredients/models/ingredient.py",
        "_sources/ingredient_747e366ed9c4a6a870910bb0e7828665.py"
      ],
      [
        "ingredients/models/losses.py",
        "_sources/losses_abe43699b91f973b3386b64c89dca0c3.py"
      ],
      [
        "ingredients/models/metrics.py",
        "_sources/metrics_c4a14c029fc1025eceaaeb7be6941e78.py"
      ],
      [
        "ingredients/optimizers.py",
        "_sources/optimizers_bdcbe5fd97e7b5bc148b209aebdcb69a.py"
      ],
      [
        "ingredients/paths.py",
        "_sources/paths_19e5d255fcfd092a7433d14cb0639748.py"
      ],
      [
        "ingredients/plots.py",
        "_sources/plots_d7c299885075f187ab2e727d83c65b69.py"
      ],
      [
        "intensifiers.py",
        "_sources/intensifiers_886c905a9b2aa7af48a5da88871d2a48.py"
      ]
    ]
  },
  "heartbeat": "2021-12-07T14:56:57.123897",
  "host": {
    "ENV": {},
    "cpu": null,
    "gpus": {
      "driver_version": "440.64.00",
      "gpus": [
        {
          "model": "Tesla V100-SXM2-32GB",
          "persistence_mode": true,
          "total_memory": 32510
        }
      ]
    },
    "hostname": "taurusml30",
    "os": [
      "Linux",
      "Linux-4.14.0-115.19.1.el7a.ppc64le-ppc64le-with-redhat-7.6-Maipo"
    ],
    "python_version": "3.7.4"
  },
  "meta": {
    "command": "experiment",
    "options": {
      "--beat-interval": null,
      "--capture": null,
      "--comment": null,
      "--debug": false,
      "--enforce_clean": false,
      "--file_storage": "/scratch/ws/0/nphilipp-intensifiers",
      "--force": false,
      "--help": false,
      "--id": "9",
      "--loglevel": null,
      "--mongo_db": null,
      "--name": null,
      "--pdb": false,
      "--print-config": false,
      "--priority": null,
      "--queue": false,
      "--s3": null,
      "--sql": null,
      "--tiny_db": null,
      "--unobserved": false,
      "COMMAND": null,
      "UPDATE": [
        "epochs=1000",
        "intensifiers_multiply.json"
      ],
      "help": false,
      "with": true
    }
  },
  "resources": [],
  "result": {
    "categorical_accuracy": 0.5382418036460876,
    "loss": 1.6031739711761475,
    "lr": {
      "dtype": "float32",
      "py/object": "numpy.float32",
      "value": 9.999999747378752e-05
    },
    "precision": 0.9019196629524231,
    "recall": 0.44117602705955505,
    "train_time": 28023.104,
    "val_categorical_accuracy": 0.25392916798591614,
    "val_loss": 4.802414894104004,
    "val_precision": 0.48572224378585815,
    "val_recall": 0.20449213683605194
  },
  "start_time": "2021-12-07T07:09:05.921731",
  "status": "COMPLETED",
  "stop_time": "2021-12-07T14:56:57.020440"
}