{
    "loss": [
        2.893551826477051,
        2.5526981353759766,
        2.4475278854370117,
        2.371387243270874,
        2.3101062774658203,
        2.2562334537506104,
        2.2049078941345215,
        2.1268367767333984,
        2.1001148223876953,
        2.076291084289551,
        2.052788734436035,
        2.032679557800293,
        1.9884921312332153,
        1.9752498865127563,
        1.965632438659668,
        1.9542733430862427,
        1.9436577558517456,
        1.920263409614563,
        1.9143295288085938,
        1.9095391035079956,
        1.9035670757293701,
        1.8983845710754395,
        1.8913345336914062,
        1.8896920680999756,
        1.8839002847671509,
        1.8805617094039917,
        1.8769587278366089,
        1.8738176822662354,
        1.870983362197876,
        1.8632309436798096,
        1.864427924156189,
        1.85802161693573,
        1.8536012172698975,
        1.8528350591659546,
        1.8476252555847168,
        1.8456685543060303,
        1.8419924974441528,
        1.8388164043426514,
        1.836372971534729,
        1.8317123651504517,
        1.830105185508728,
        1.8268121480941772,
        1.824951410293579,
        1.818513035774231,
        1.818961262702942,
        1.8137762546539307,
        1.8107372522354126,
        1.80850350856781,
        1.805686593055725,
        1.8016932010650635,
        1.796782374382019,
        1.7946332693099976,
        1.7912522554397583,
        1.7888362407684326,
        1.7870317697525024,
        1.7823599576950073,
        1.7817000150680542,
        1.7772605419158936,
        1.7770768404006958,
        1.772832989692688,
        1.77039635181427,
        1.7696584463119507,
        1.7625384330749512,
        1.7592477798461914,
        1.7598011493682861,
        1.756577730178833,
        1.7539503574371338,
        1.75177001953125,
        1.7468974590301514,
        1.7434769868850708,
        1.740151047706604,
        1.7395305633544922,
        1.734788417816162,
        1.732590675354004,
        1.7313122749328613,
        1.7290352582931519,
        1.7257286310195923,
        1.7229338884353638,
        1.720776081085205,
        1.7227221727371216,
        1.7158063650131226,
        1.7136918306350708,
        1.7125152349472046,
        1.7105985879898071,
        1.70742666721344,
        1.7049555778503418,
        1.7040635347366333,
        1.699832558631897,
        1.6991761922836304,
        1.6964091062545776,
        1.6950701475143433,
        1.6895478963851929,
        1.6877087354660034,
        1.6854748725891113,
        1.6826097965240479,
        1.681875228881836,
        1.6786977052688599,
        1.6764432191848755,
        1.6754149198532104,
        1.6722948551177979
    ],
    "categorical_accuracy": [
        0.3889515697956085,
        0.42399248480796814,
        0.4360048770904541,
        0.4428899884223938,
        0.44832485914230347,
        0.45390620827674866,
        0.4571583569049835,
        0.4676471948623657,
        0.47045984864234924,
        0.47212985157966614,
        0.4741953909397125,
        0.47664180397987366,
        0.4826919436454773,
        0.4852116107940674,
        0.48585617542266846,
        0.4850651025772095,
        0.48670583963394165,
        0.48953312635421753,
        0.49183306097984314,
        0.4919063150882721,
        0.4931221902370453,
        0.4931221902370453,
        0.49419158697128296,
        0.49467501044273376,
        0.4945724606513977,
        0.49529027938842773,
        0.4965208172798157,
        0.4967551827430725,
        0.4961838722229004,
        0.4966380000114441,
        0.4971214234828949,
        0.4985423982143402,
        0.49829337000846863,
        0.4991430342197418,
        0.49946531653404236,
        0.5000952482223511,
        0.49901118874549866,
        0.49934810400009155,
        0.5010766983032227,
        0.5008423328399658,
        0.5022193789482117,
        0.5016187429428101,
        0.5023512244224548,
        0.5042555928230286,
        0.5019263625144958,
        0.5024537444114685,
        0.5048708915710449,
        0.5035377740859985,
        0.5044753551483154,
        0.5057498216629028,
        0.5052517652511597,
        0.5060721039772034,
        0.507038950920105,
        0.5072293877601624,
        0.5083720088005066,
        0.5083866715431213,
        0.507830023765564,
        0.5093388557434082,
        0.5076395869255066,
        0.508914053440094,
        0.5103643536567688,
        0.509998083114624,
        0.5103936195373535,
        0.5117266774177551,
        0.5105987191200256,
        0.5122687220573425,
        0.5124005675315857,
        0.513469934463501,
        0.5135871767997742,
        0.513030469417572,
        0.5140119791030884,
        0.5137190222740173,
        0.5138654708862305,
        0.5165755748748779,
        0.5145832896232605,
        0.5162972807884216,
        0.5157552361488342,
        0.5172494649887085,
        0.5166195631027222,
        0.5147590637207031,
        0.5159164071083069,
        0.5167074203491211,
        0.516853928565979,
        0.5177328586578369,
        0.5194321870803833,
        0.5190220475196838,
        0.5185532569885254,
        0.5195054411888123,
        0.5172641277313232,
        0.5209117531776428,
        0.520677387714386,
        0.5218053460121155,
        0.5211607813835144,
        0.5234167575836182,
        0.5217760801315308,
        0.5209996700286865,
        0.523709774017334,
        0.5230944752693176,
        0.5226110816001892,
        0.5248377323150635
    ],
    "precision": [
        0.8452558517456055,
        0.8704138398170471,
        0.8813749551773071,
        0.8839385509490967,
        0.8873245120048523,
        0.8843672871589661,
        0.886434018611908,
        0.8878559470176697,
        0.8893965482711792,
        0.889442503452301,
        0.8906340003013611,
        0.8917585015296936,
        0.8956176042556763,
        0.8965985178947449,
        0.8962327837944031,
        0.8976075053215027,
        0.8975890874862671,
        0.9004526734352112,
        0.8991368412971497,
        0.8988755941390991,
        0.9009935855865479,
        0.9009918570518494,
        0.9007940888404846,
        0.9009568095207214,
        0.9015387892723083,
        0.9002060890197754,
        0.9026737809181213,
        0.903712272644043,
        0.9020976424217224,
        0.9039815664291382,
        0.9034292697906494,
        0.9039974808692932,
        0.904360830783844,
        0.9042338728904724,
        0.9040828943252563,
        0.9052327275276184,
        0.9015340209007263,
        0.9054499864578247,
        0.9037297964096069,
        0.9033651351928711,
        0.9050436019897461,
        0.9060349464416504,
        0.9052558541297913,
        0.905676007270813,
        0.9061002135276794,
        0.9065298438072205,
        0.9068703055381775,
        0.9056344032287598,
        0.905769407749176,
        0.9071105718612671,
        0.9065866470336914,
        0.9073598384857178,
        0.9062809348106384,
        0.9073377847671509,
        0.9068276286125183,
        0.9094815850257874,
        0.9073081016540527,
        0.9099720120429993,
        0.9065867066383362,
        0.9111762642860413,
        0.9094306230545044,
        0.9089364409446716,
        0.9105881452560425,
        0.9102520942687988,
        0.9096254706382751,
        0.9110538363456726,
        0.9096754789352417,
        0.9099445939064026,
        0.9099172353744507,
        0.9082435965538025,
        0.9106709957122803,
        0.9104984998703003,
        0.9120393991470337,
        0.9119532704353333,
        0.9135308265686035,
        0.9123566150665283,
        0.9127881526947021,
        0.912838339805603,
        0.9138196706771851,
        0.9121515154838562,
        0.9123023748397827,
        0.9115371704101562,
        0.9125262498855591,
        0.9128100872039795,
        0.9134916067123413,
        0.9139752984046936,
        0.913147509098053,
        0.9139229655265808,
        0.9130088090896606,
        0.9147229790687561,
        0.9151877760887146,
        0.915613055229187,
        0.9141226410865784,
        0.9154184460639954,
        0.9151096343994141,
        0.9153198003768921,
        0.9141418933868408,
        0.9154553413391113,
        0.9135097861289978,
        0.9167928099632263
    ],
    "recall": [
        0.2906259596347809,
        0.3312043249607086,
        0.33392906188964844,
        0.3362729549407959,
        0.33974480628967285,
        0.34541407227516174,
        0.3479483723640442,
        0.3539692163467407,
        0.3564595878124237,
        0.3582760691642761,
        0.36135241389274597,
        0.3626708388328552,
        0.36614271998405457,
        0.3679885268211365,
        0.3690725564956665,
        0.36933624744415283,
        0.371958464384079,
        0.3730131983757019,
        0.37387749552726746,
        0.37475645542144775,
        0.37460997700691223,
        0.37526917457580566,
        0.377232164144516,
        0.3765875995159149,
        0.3767780363559723,
        0.37753981351852417,
        0.37784743309020996,
        0.3783748149871826,
        0.3786238431930542,
        0.37982508540153503,
        0.3797518312931061,
        0.38030850887298584,
        0.3806600868701935,
        0.3810702860355377,
        0.38082122802734375,
        0.3808944821357727,
        0.3822568655014038,
        0.3818613290786743,
        0.3829893171787262,
        0.38303327560424805,
        0.38326767086982727,
        0.3837803900241852,
        0.38351669907569885,
        0.38498160243034363,
        0.3849230110645294,
        0.3855968713760376,
        0.38615354895591736,
        0.38591915369033813,
        0.3856847882270813,
        0.38797006011009216,
        0.3871350586414337,
        0.3881165385246277,
        0.3887171745300293,
        0.38873180747032166,
        0.38952288031578064,
        0.3906362056732178,
        0.3890247941017151,
        0.39060690999031067,
        0.3919692933559418,
        0.39161771535873413,
        0.39215973019599915,
        0.3918667435646057,
        0.39281895756721497,
        0.39358070492744446,
        0.3920571804046631,
        0.39372721314430237,
        0.39377114176750183,
        0.394620805978775,
        0.39448896050453186,
        0.39542651176452637,
        0.3960564434528351,
        0.3962615132331848,
        0.3962908089160919,
        0.3979901373386383,
        0.3975946009159088,
        0.3984735608100891,
        0.39848819375038147,
        0.3996601402759552,
        0.39967477321624756,
        0.39927926659584045,
        0.3998798727989197,
        0.40046584606170654,
        0.40115436911582947,
        0.4010518193244934,
        0.4025020897388458,
        0.40171101689338684,
        0.4026046395301819,
        0.4017549753189087,
        0.40282437205314636,
        0.40273648500442505,
        0.4034103453159332,
        0.4042013883590698,
        0.40355682373046875,
        0.4055637717247009,
        0.40537333488464355,
        0.40568095445632935,
        0.4070872962474823,
        0.4068675637245178,
        0.4055344760417938,
        0.40803948044776917
    ],
    "val_loss": [
        2.7973573207855225,
        2.778761863708496,
        2.805070638656616,
        2.8617842197418213,
        2.924534559249878,
        2.9898037910461426,
        3.0211291313171387,
        3.083967685699463,
        3.132082223892212,
        3.206552028656006,
        3.2434768676757812,
        3.2508153915405273,
        3.3223860263824463,
        3.373274326324463,
        3.3684260845184326,
        3.42275071144104,
        3.401334047317505,
        3.4424517154693604,
        3.453688383102417,
        3.4558844566345215,
        3.4978158473968506,
        3.4787583351135254,
        3.4909088611602783,
        3.492929220199585,
        3.51436185836792,
        3.5136876106262207,
        3.512488603591919,
        3.51536226272583,
        3.5430617332458496,
        3.5459797382354736,
        3.560849189758301,
        3.580904960632324,
        3.583350896835327,
        3.605966091156006,
        3.587414503097534,
        3.5962798595428467,
        3.610067844390869,
        3.607452630996704,
        3.631495475769043,
        3.61586856842041,
        3.618849039077759,
        3.609591007232666,
        3.637854814529419,
        3.6320383548736572,
        3.6527211666107178,
        3.6458611488342285,
        3.69209623336792,
        3.6900126934051514,
        3.665388584136963,
        3.664240837097168,
        3.671468496322632,
        3.6836748123168945,
        3.6875245571136475,
        3.7087972164154053,
        3.6889686584472656,
        3.7226450443267822,
        3.7077438831329346,
        3.714726686477661,
        3.7323408126831055,
        3.741027355194092,
        3.725433111190796,
        3.7262234687805176,
        3.7623915672302246,
        3.7451088428497314,
        3.768867015838623,
        3.7633252143859863,
        3.744297981262207,
        3.7620432376861572,
        3.7830920219421387,
        3.79793119430542,
        3.778216600418091,
        3.797625780105591,
        3.798940658569336,
        3.805931329727173,
        3.787226438522339,
        3.808652877807617,
        3.802008628845215,
        3.8074967861175537,
        3.8360137939453125,
        3.812467336654663,
        3.8441343307495117,
        3.8413054943084717,
        3.8196067810058594,
        3.871169328689575,
        3.854271173477173,
        3.8339743614196777,
        3.8378920555114746,
        3.85185170173645,
        3.8590211868286133,
        3.8661296367645264,
        3.8830182552337646,
        3.880845069885254,
        3.871015787124634,
        3.8861629962921143,
        3.8884670734405518,
        3.885937213897705,
        3.898164987564087,
        3.907351016998291,
        3.905571460723877,
        3.908747434616089
    ],
    "val_categorical_accuracy": [
        0.3925052881240845,
        0.39725545048713684,
        0.38570255041122437,
        0.38353273272514343,
        0.38400188088417053,
        0.35602861642837524,
        0.3480530083179474,
        0.3474665582180023,
        0.34324419498443604,
        0.334154337644577,
        0.3293455243110657,
        0.33485808968544006,
        0.322366863489151,
        0.3114004135131836,
        0.31251466274261475,
        0.3027210831642151,
        0.31515365839004517,
        0.3079990744590759,
        0.30923059582710266,
        0.308468222618103,
        0.3061811029911041,
        0.3099343180656433,
        0.30471497774124146,
        0.3080576956272125,
        0.30612245202064514,
        0.3027797341346741,
        0.30565330386161804,
        0.30248650908470154,
        0.30424582958221436,
        0.3012549877166748,
        0.3011963367462158,
        0.29791226983070374,
        0.2949800491333008,
        0.2980295419692993,
        0.29873329401016235,
        0.30049261450767517,
        0.29867464303970337,
        0.29738447070121765,
        0.2963288724422455,
        0.2980295419692993,
        0.30002346634864807,
        0.3009031116962433,
        0.2990265190601349,
        0.29785361886024475,
        0.29738447070121765,
        0.29926109313964844,
        0.29052311182022095,
        0.29327937960624695,
        0.29638752341270447,
        0.29773634672164917,
        0.29644617438316345,
        0.29544922709465027,
        0.2953319251537323,
        0.29380717873573303,
        0.2967980206012726,
        0.293162077665329,
        0.29380717873573303,
        0.29421767592430115,
        0.29410040378570557,
        0.29228243231773376,
        0.2962116003036499,
        0.2971498966217041,
        0.2934553027153015,
        0.2939831018447876,
        0.2916959822177887,
        0.29245835542678833,
        0.29474547505378723,
        0.2933966815471649,
        0.2907576858997345,
        0.2893502116203308,
        0.28952616453170776,
        0.2889983654022217,
        0.2899366617202759,
        0.2889983654022217,
        0.29368987679481506,
        0.2897607386112213,
        0.29281023144721985,
        0.29140275716781616,
        0.2857142984867096,
        0.2915787100791931,
        0.28641802072525024,
        0.2897607386112213,
        0.2920478582382202,
        0.2881186902523041,
        0.28823599219322205,
        0.29239970445632935,
        0.2921065092086792,
        0.28964343667030334,
        0.28999531269073486,
        0.2884705662727356,
        0.287649542093277,
        0.28735631704330444,
        0.2912268340587616,
        0.28876379132270813,
        0.28923293948173523,
        0.28952616453170776,
        0.2880600392818451,
        0.28782546520233154,
        0.2898193895816803,
        0.29105091094970703
    ],
    "val_precision": [
        0.8344360589981079,
        0.8363245725631714,
        0.8475868105888367,
        0.8312981724739075,
        0.839597761631012,
        0.8388755917549133,
        0.8094711899757385,
        0.8103766441345215,
        0.7913564443588257,
        0.7712963223457336,
        0.774587094783783,
        0.7498252987861633,
        0.7426537871360779,
        0.7460982203483582,
        0.7462514638900757,
        0.7197225093841553,
        0.7337770462036133,
        0.7235228419303894,
        0.7169983386993408,
        0.7072463631629944,
        0.6947783827781677,
        0.6971755623817444,
        0.7018565535545349,
        0.6949607133865356,
        0.6939361095428467,
        0.7000548243522644,
        0.6971179842948914,
        0.6904163956642151,
        0.6957700848579407,
        0.6878798604011536,
        0.6877477765083313,
        0.6872833371162415,
        0.6775575876235962,
        0.6838288903236389,
        0.6842105388641357,
        0.6770153641700745,
        0.6764444708824158,
        0.6761837005615234,
        0.6703218817710876,
        0.6710963249206543,
        0.6826581358909607,
        0.6732276678085327,
        0.6750307083129883,
        0.6701498031616211,
        0.6731517314910889,
        0.6794190406799316,
        0.6598939895629883,
        0.6657258868217468,
        0.6648789048194885,
        0.6666088700294495,
        0.6716313362121582,
        0.6569807529449463,
        0.6564164161682129,
        0.6159604787826538,
        0.6551312804222107,
        0.6515775322914124,
        0.6282509565353394,
        0.653537929058075,
        0.6175483465194702,
        0.6112430691719055,
        0.6518054008483887,
        0.6459720134735107,
        0.6040310263633728,
        0.6100187301635742,
        0.6049113869667053,
        0.602207362651825,
        0.6147463917732239,
        0.6042408347129822,
        0.6068189144134521,
        0.6028059124946594,
        0.6048007607460022,
        0.6035270094871521,
        0.596251368522644,
        0.6029525995254517,
        0.6051988005638123,
        0.6003081798553467,
        0.6036463975906372,
        0.6019044518470764,
        0.5986924171447754,
        0.5977221131324768,
        0.5957116484642029,
        0.6036036014556885,
        0.5953242778778076,
        0.5915514230728149,
        0.595971941947937,
        0.6028108596801758,
        0.6009717583656311,
        0.5880423188209534,
        0.5903650522232056,
        0.5928961634635925,
        0.5863984227180481,
        0.5950337052345276,
        0.5904548764228821,
        0.5896084308624268,
        0.5887181162834167,
        0.5920934677124023,
        0.5833209753036499,
        0.5852230191230774,
        0.5856591463088989,
        0.5831239819526672
    ],
    "val_recall": [
        0.31802719831466675,
        0.31972789764404297,
        0.2935139536857605,
        0.30342480540275574,
        0.29867464303970337,
        0.2677691876888275,
        0.25762373208999634,
        0.2573891580104828,
        0.255571186542511,
        0.24425287544727325,
        0.24202439188957214,
        0.25170066952705383,
        0.23862303793430328,
        0.2298850566148758,
        0.22765657305717468,
        0.22513487935066223,
        0.23275862634181976,
        0.22836031019687653,
        0.2302955687046051,
        0.2289467453956604,
        0.2270701378583908,
        0.22871217131614685,
        0.22613182663917542,
        0.228067085146904,
        0.22683556377887726,
        0.22460708022117615,
        0.22554539144039154,
        0.22560402750968933,
        0.2257213294506073,
        0.22566267848014832,
        0.2238447070121765,
        0.22091250121593475,
        0.2225545346736908,
        0.2212057262659073,
        0.22337555885314941,
        0.22507624328136444,
        0.22314098477363586,
        0.22361013293266296,
        0.22226132452487946,
        0.22507624328136444,
        0.225310817360878,
        0.2266596257686615,
        0.22560402750968933,
        0.22566267848014832,
        0.22319962084293365,
        0.22495895624160767,
        0.21903589367866516,
        0.22132301330566406,
        0.22536945343017578,
        0.22548674046993256,
        0.2247830182313919,
        0.22407928109169006,
        0.22407928109169006,
        0.22677691280841827,
        0.22536945343017578,
        0.22284775972366333,
        0.2266596257686615,
        0.2247830182313919,
        0.2266009896993637,
        0.22636641561985016,
        0.22548674046993256,
        0.2275979369878769,
        0.2284775972366333,
        0.22923997044563293,
        0.22824302315711975,
        0.22718742489814758,
        0.2302955687046051,
        0.2289467453956604,
        0.2275392860174179,
        0.22677691280841827,
        0.22607319056987762,
        0.2247830182313919,
        0.2275979369878769,
        0.2275392860174179,
        0.2321135401725769,
        0.2284775972366333,
        0.23105794191360474,
        0.229826420545578,
        0.22554539144039154,
        0.2308233678340912,
        0.2248416543006897,
        0.22789116203784943,
        0.23146845400333405,
        0.22830165922641754,
        0.22906403243541718,
        0.23140980303287506,
        0.2321135401725769,
        0.2312925159931183,
        0.23140980303287506,
        0.22906403243541718,
        0.22906403243541718,
        0.22765657305717468,
        0.2321721762418747,
        0.22959183156490326,
        0.23135116696357727,
        0.23187895119190216,
        0.23053014278411865,
        0.22853624820709229,
        0.23135116696357727,
        0.23140980303287506
    ],
    "lr": [
        {
            "py/object": "numpy.float32",
            "dtype": "float32",
            "value": 0.0010000000474974513
        },
        {
            "py/object": "numpy.float32",
            "dtype": "float32",
            "value": 0.0010000000474974513
        },
        {
            "py/object": "numpy.float32",
            "dtype": "float32",
            "value": 0.0010000000474974513
        },
        {
            "py/object": "numpy.float32",
            "dtype": "float32",
            "value": 0.0010000000474974513
        },
        {
            "py/object": "numpy.float32",
            "dtype": "float32",
            "value": 0.0010000000474974513
        },
        {
            "py/object": "numpy.float32",
            "dtype": "float32",
            "value": 0.0010000000474974513
        },
        {
            "py/object": "numpy.float32",
            "dtype": "float32",
            "value": 0.0010000000474974513
        },
        {
            "py/object": "numpy.float32",
            "dtype": "float32",
            "value": 0.0005000000237487257
        },
        {
            "py/object": "numpy.float32",
            "dtype": "float32",
            "value": 0.0005000000237487257
        },
        {
            "py/object": "numpy.float32",
            "dtype": "float32",
            "value": 0.0005000000237487257
        },
        {
            "py/object": "numpy.float32",
            "dtype": "float32",
            "value": 0.0005000000237487257
        },
        {
            "py/object": "numpy.float32",
            "dtype": "float32",
            "value": 0.0005000000237487257
        },
        {
            "py/object": "numpy.float32",
            "dtype": "float32",
            "value": 0.0002500000118743628
        },
        {
            "py/object": "numpy.float32",
            "dtype": "float32",
            "value": 0.0002500000118743628
        },
        {
            "py/object": "numpy.float32",
            "dtype": "float32",
            "value": 0.0002500000118743628
        },
        {
            "py/object": "numpy.float32",
            "dtype": "float32",
            "value": 0.0002500000118743628
        },
        {
            "py/object": "numpy.float32",
            "dtype": "float32",
            "value": 0.0002500000118743628
        },
        {
            "py/object": "numpy.float32",
            "dtype": "float32",
            "value": 0.0001250000059371814
        },
        {
            "py/object": "numpy.float32",
            "dtype": "float32",
            "value": 0.0001250000059371814
        },
        {
            "py/object": "numpy.float32",
            "dtype": "float32",
            "value": 0.0001250000059371814
        },
        {
            "py/object": "numpy.float32",
            "dtype": "float32",
            "value": 0.0001250000059371814
        },
        {
            "py/object": "numpy.float32",
            "dtype": "float32",
            "value": 0.0001250000059371814
        },
        {
            "py/object": "numpy.float32",
            "dtype": "float32",
            "value": 9.999999747378752e-05
        },
        {
            "py/object": "numpy.float32",
            "dtype": "float32",
            "value": 9.999999747378752e-05
        },
        {
            "py/object": "numpy.float32",
            "dtype": "float32",
            "value": 9.999999747378752e-05
        },
        {
            "py/object": "numpy.float32",
            "dtype": "float32",
            "value": 9.999999747378752e-05
        },
        {
            "py/object": "numpy.float32",
            "dtype": "float32",
            "value": 9.999999747378752e-05
        },
        {
            "py/object": "numpy.float32",
            "dtype": "float32",
            "value": 9.999999747378752e-05
        },
        {
            "py/object": "numpy.float32",
            "dtype": "float32",
            "value": 9.999999747378752e-05
        },
        {
            "py/object": "numpy.float32",
            "dtype": "float32",
            "value": 9.999999747378752e-05
        },
        {
            "py/object": "numpy.float32",
            "dtype": "float32",
            "value": 9.999999747378752e-05
        },
        {
            "py/object": "numpy.float32",
            "dtype": "float32",
            "value": 9.999999747378752e-05
        },
        {
            "py/object": "numpy.float32",
            "dtype": "float32",
            "value": 9.999999747378752e-05
        },
        {
            "py/object": "numpy.float32",
            "dtype": "float32",
            "value": 9.999999747378752e-05
        },
        {
            "py/object": "numpy.float32",
            "dtype": "float32",
            "value": 9.999999747378752e-05
        },
        {
            "py/object": "numpy.float32",
            "dtype": "float32",
            "value": 9.999999747378752e-05
        },
        {
            "py/object": "numpy.float32",
            "dtype": "float32",
            "value": 9.999999747378752e-05
        },
        {
            "py/object": "numpy.float32",
            "dtype": "float32",
            "value": 9.999999747378752e-05
        },
        {
            "py/object": "numpy.float32",
            "dtype": "float32",
            "value": 9.999999747378752e-05
        },
        {
            "py/object": "numpy.float32",
            "dtype": "float32",
            "value": 9.999999747378752e-05
        },
        {
            "py/object": "numpy.float32",
            "dtype": "float32",
            "value": 9.999999747378752e-05
        },
        {
            "py/object": "numpy.float32",
            "dtype": "float32",
            "value": 9.999999747378752e-05
        },
        {
            "py/object": "numpy.float32",
            "dtype": "float32",
            "value": 9.999999747378752e-05
        },
        {
            "py/object": "numpy.float32",
            "dtype": "float32",
            "value": 9.999999747378752e-05
        },
        {
            "py/object": "numpy.float32",
            "dtype": "float32",
            "value": 9.999999747378752e-05
        },
        {
            "py/object": "numpy.float32",
            "dtype": "float32",
            "value": 9.999999747378752e-05
        },
        {
            "py/object": "numpy.float32",
            "dtype": "float32",
            "value": 9.999999747378752e-05
        },
        {
            "py/object": "numpy.float32",
            "dtype": "float32",
            "value": 9.999999747378752e-05
        },
        {
            "py/object": "numpy.float32",
            "dtype": "float32",
            "value": 9.999999747378752e-05
        },
        {
            "py/object": "numpy.float32",
            "dtype": "float32",
            "value": 9.999999747378752e-05
        },
        {
            "py/object": "numpy.float32",
            "dtype": "float32",
            "value": 9.999999747378752e-05
        },
        {
            "py/object": "numpy.float32",
            "dtype": "float32",
            "value": 9.999999747378752e-05
        },
        {
            "py/object": "numpy.float32",
            "dtype": "float32",
            "value": 9.999999747378752e-05
        },
        {
            "py/object": "numpy.float32",
            "dtype": "float32",
            "value": 9.999999747378752e-05
        },
        {
            "py/object": "numpy.float32",
            "dtype": "float32",
            "value": 9.999999747378752e-05
        },
        {
            "py/object": "numpy.float32",
            "dtype": "float32",
            "value": 9.999999747378752e-05
        },
        {
            "py/object": "numpy.float32",
            "dtype": "float32",
            "value": 9.999999747378752e-05
        },
        {
            "py/object": "numpy.float32",
            "dtype": "float32",
            "value": 9.999999747378752e-05
        },
        {
            "py/object": "numpy.float32",
            "dtype": "float32",
            "value": 9.999999747378752e-05
        },
        {
            "py/object": "numpy.float32",
            "dtype": "float32",
            "value": 9.999999747378752e-05
        },
        {
            "py/object": "numpy.float32",
            "dtype": "float32",
            "value": 9.999999747378752e-05
        },
        {
            "py/object": "numpy.float32",
            "dtype": "float32",
            "value": 9.999999747378752e-05
        },
        {
            "py/object": "numpy.float32",
            "dtype": "float32",
            "value": 9.999999747378752e-05
        },
        {
            "py/object": "numpy.float32",
            "dtype": "float32",
            "value": 9.999999747378752e-05
        },
        {
            "py/object": "numpy.float32",
            "dtype": "float32",
            "value": 9.999999747378752e-05
        },
        {
            "py/object": "numpy.float32",
            "dtype": "float32",
            "value": 9.999999747378752e-05
        },
        {
            "py/object": "numpy.float32",
            "dtype": "float32",
            "value": 9.999999747378752e-05
        },
        {
            "py/object": "numpy.float32",
            "dtype": "float32",
            "value": 9.999999747378752e-05
        },
        {
            "py/object": "numpy.float32",
            "dtype": "float32",
            "value": 9.999999747378752e-05
        },
        {
            "py/object": "numpy.float32",
            "dtype": "float32",
            "value": 9.999999747378752e-05
        },
        {
            "py/object": "numpy.float32",
            "dtype": "float32",
            "value": 9.999999747378752e-05
        },
        {
            "py/object": "numpy.float32",
            "dtype": "float32",
            "value": 9.999999747378752e-05
        },
        {
            "py/object": "numpy.float32",
            "dtype": "float32",
            "value": 9.999999747378752e-05
        },
        {
            "py/object": "numpy.float32",
            "dtype": "float32",
            "value": 9.999999747378752e-05
        },
        {
            "py/object": "numpy.float32",
            "dtype": "float32",
            "value": 9.999999747378752e-05
        },
        {
            "py/object": "numpy.float32",
            "dtype": "float32",
            "value": 9.999999747378752e-05
        },
        {
            "py/object": "numpy.float32",
            "dtype": "float32",
            "value": 9.999999747378752e-05
        },
        {
            "py/object": "numpy.float32",
            "dtype": "float32",
            "value": 9.999999747378752e-05
        },
        {
            "py/object": "numpy.float32",
            "dtype": "float32",
            "value": 9.999999747378752e-05
        },
        {
            "py/object": "numpy.float32",
            "dtype": "float32",
            "value": 9.999999747378752e-05
        },
        {
            "py/object": "numpy.float32",
            "dtype": "float32",
            "value": 9.999999747378752e-05
        },
        {
            "py/object": "numpy.float32",
            "dtype": "float32",
            "value": 9.999999747378752e-05
        },
        {
            "py/object": "numpy.float32",
            "dtype": "float32",
            "value": 9.999999747378752e-05
        },
        {
            "py/object": "numpy.float32",
            "dtype": "float32",
            "value": 9.999999747378752e-05
        },
        {
            "py/object": "numpy.float32",
            "dtype": "float32",
            "value": 9.999999747378752e-05
        },
        {
            "py/object": "numpy.float32",
            "dtype": "float32",
            "value": 9.999999747378752e-05
        },
        {
            "py/object": "numpy.float32",
            "dtype": "float32",
            "value": 9.999999747378752e-05
        },
        {
            "py/object": "numpy.float32",
            "dtype": "float32",
            "value": 9.999999747378752e-05
        },
        {
            "py/object": "numpy.float32",
            "dtype": "float32",
            "value": 9.999999747378752e-05
        },
        {
            "py/object": "numpy.float32",
            "dtype": "float32",
            "value": 9.999999747378752e-05
        },
        {
            "py/object": "numpy.float32",
            "dtype": "float32",
            "value": 9.999999747378752e-05
        },
        {
            "py/object": "numpy.float32",
            "dtype": "float32",
            "value": 9.999999747378752e-05
        },
        {
            "py/object": "numpy.float32",
            "dtype": "float32",
            "value": 9.999999747378752e-05
        },
        {
            "py/object": "numpy.float32",
            "dtype": "float32",
            "value": 9.999999747378752e-05
        },
        {
            "py/object": "numpy.float32",
            "dtype": "float32",
            "value": 9.999999747378752e-05
        },
        {
            "py/object": "numpy.float32",
            "dtype": "float32",
            "value": 9.999999747378752e-05
        },
        {
            "py/object": "numpy.float32",
            "dtype": "float32",
            "value": 9.999999747378752e-05
        },
        {
            "py/object": "numpy.float32",
            "dtype": "float32",
            "value": 9.999999747378752e-05
        },
        {
            "py/object": "numpy.float32",
            "dtype": "float32",
            "value": 9.999999747378752e-05
        },
        {
            "py/object": "numpy.float32",
            "dtype": "float32",
            "value": 9.999999747378752e-05
        }
    ]
}
