{
  "__doc__": "Experiment config.",
  "batch_size": 256,
  "callbacks": {
    "__doc__": "Callbacks config.",
    "reducelronplateau": {
      "factor": 0.5,
      "min_lr": 0.0001,
      "monitor": "val_loss",
      "patience": 5
    },
    "tensorboard": {},
    "terminateonnan": true
  },
  "datasets": {
    "texts": {
      "__doc__": "Dataset config.",
      "dataset": "deu_intensifiers",
      "dtype": {
        "next": {
          "py/type": "numpy.uint64"
        },
        "tweet": {
          "py/type": "numpy.uint64"
        }
      },
      "id_fieldname": "id",
      "mode": "separate",
      "sample_weights": false,
      "to_categorical_fields": {
        "next": 6668
      },
      "vocab_fieldnames": [
        "adjd",
        "stack"
      ],
      "vocab_path": "vocab.json",
      "x_append_one": [
        "tweet"
      ],
      "x_fieldnames": [
        "tweet"
      ],
      "y_append_one": false,
      "y_fieldnames": [
        "next"
      ]
    }
  },
  "epochs": 10,
  "models": {
    "__doc__": "Model config.",
    "blocks": [
      {
        "config": {
          "nb_layers": 1
        },
        "t": "rnn"
      }
    ],
    "inputs": [
      {
        "name": "tweet",
        "shape": [
          null
        ],
        "t": "embedding"
      }
    ],
    "layers": {
      "bidirectional": {
        "merge_mode": "concat"
      },
      "embedding": {
        "input_dim": 105,
        "mask_zero": true,
        "output_dim": 32
      },
      "embedding_dropout": {
        "class_name": "SpatialDropout1D",
        "config": {
          "rate": 0.1
        }
      },
      "recurrent": {
        "class_name": "GRU",
        "config": {
          "dropout": 0.1,
          "recurrent_dropout": 0.1,
          "units": 512
        }
      }
    },
    "merge": {},
    "outputs": [
      {
        "activation": "softmax",
        "layer": "dense",
        "loss": "categorical_crossentropy",
        "metrics": [
          "categorical_accuracy",
          "precision",
          "recall"
        ],
        "name": "next",
        "nb_classes": 6668,
        "t": "class"
      }
    ],
    "path": null
  },
  "optimizers": {
    "__doc__": "Optimizer config.",
    "amsgrad": true,
    "class_name": "adam"
  },
  "paths": {
    "__doc__": "Default config.",
    "datasets_dir": "/projects/p003/p_sprachkultur/nphilipp/deep_learning/datasets",
    "project_dir": "/projects/p003/p_sprachkultur/nphilipp/deep_learning"
  },
  "seed": 392790374
}