{
  "categorical_accuracy": {
    "steps": [
      0,
      1,
      2,
      3,
      4,
      5,
      6,
      7,
      8,
      9,
      10,
      11,
      12,
      13,
      14,
      15,
      16,
      17,
      18,
      19,
      20,
      21,
      22,
      23,
      24,
      25,
      26,
      27,
      28,
      29,
      30,
      31,
      32,
      33,
      34,
      35,
      36,
      37,
      38,
      39,
      40,
      41,
      42,
      43,
      44,
      45,
      46,
      47,
      48,
      49,
      50,
      51,
      52,
      53,
      54,
      55,
      56,
      57,
      58,
      59,
      60,
      61,
      62,
      63,
      64,
      65,
      66,
      67,
      68,
      69,
      70,
      71,
      72,
      73,
      74,
      75,
      76,
      77,
      78,
      79,
      80,
      81,
      82,
      83,
      84,
      85,
      86,
      87,
      88,
      89,
      90,
      91,
      92,
      93,
      94,
      95,
      96,
      97,
      98,
      99
    ],
    "timestamps": [
      "2021-12-07T07:09:50.401456",
      "2021-12-07T07:10:17.294032",
      "2021-12-07T07:10:43.980398",
      "2021-12-07T07:11:10.201543",
      "2021-12-07T07:11:36.436888",
      "2021-12-07T07:12:02.561249",
      "2021-12-07T07:12:28.783410",
      "2021-12-07T07:12:55.032010",
      "2021-12-07T07:13:21.197793",
      "2021-12-07T07:13:47.962948",
      "2021-12-07T07:14:14.861830",
      "2021-12-07T07:14:41.665812",
      "2021-12-07T07:15:08.349000",
      "2021-12-07T07:15:35.135813",
      "2021-12-07T07:16:01.891830",
      "2021-12-07T07:16:28.652561",
      "2021-12-07T07:16:55.372986",
      "2021-12-07T07:17:22.150300",
      "2021-12-07T07:17:48.820847",
      "2021-12-07T07:18:15.009861",
      "2021-12-07T07:18:41.292303",
      "2021-12-07T07:19:07.538025",
      "2021-12-07T07:19:33.699889",
      "2021-12-07T07:19:59.914630",
      "2021-12-07T07:20:26.034549",
      "2021-12-07T07:20:52.216529",
      "2021-12-07T07:21:18.321148",
      "2021-12-07T07:21:44.586026",
      "2021-12-07T07:22:10.784596",
      "2021-12-07T07:22:36.908273",
      "2021-12-07T07:23:03.117815",
      "2021-12-07T07:23:29.281913",
      "2021-12-07T07:23:55.458025",
      "2021-12-07T07:24:21.515830",
      "2021-12-07T07:24:47.671261",
      "2021-12-07T07:25:13.804120",
      "2021-12-07T07:25:39.889976",
      "2021-12-07T07:26:06.049085",
      "2021-12-07T07:26:32.219333",
      "2021-12-07T07:26:58.269534",
      "2021-12-07T07:27:24.465677",
      "2021-12-07T07:27:50.652265",
      "2021-12-07T07:28:16.811958",
      "2021-12-07T07:28:42.969354",
      "2021-12-07T07:29:09.055960",
      "2021-12-07T07:29:35.245842",
      "2021-12-07T07:30:01.391040",
      "2021-12-07T07:30:27.539133",
      "2021-12-07T07:30:53.726536",
      "2021-12-07T07:31:19.923667",
      "2021-12-07T07:31:46.143421",
      "2021-12-07T07:32:12.205549",
      "2021-12-07T07:32:38.332857",
      "2021-12-07T07:33:04.472766",
      "2021-12-07T07:33:30.745763",
      "2021-12-07T07:33:57.008448",
      "2021-12-07T07:34:23.095251",
      "2021-12-07T07:34:49.256464",
      "2021-12-07T07:35:15.448722",
      "2021-12-07T07:35:41.584675",
      "2021-12-07T07:36:07.622667",
      "2021-12-07T07:36:33.730398",
      "2021-12-07T07:36:59.882775",
      "2021-12-07T07:37:25.960186",
      "2021-12-07T07:37:52.098149",
      "2021-12-07T07:38:18.175291",
      "2021-12-07T07:38:44.294014",
      "2021-12-07T07:39:10.396607",
      "2021-12-07T07:39:36.520578",
      "2021-12-07T07:40:02.531274",
      "2021-12-07T07:40:28.599865",
      "2021-12-07T07:40:54.734702",
      "2021-12-07T07:41:20.824049",
      "2021-12-07T07:41:46.926749",
      "2021-12-07T07:42:13.012799",
      "2021-12-07T07:42:39.062638",
      "2021-12-07T07:43:05.155078",
      "2021-12-07T07:43:31.173556",
      "2021-12-07T07:43:57.289884",
      "2021-12-07T07:44:23.346890",
      "2021-12-07T07:44:49.421597",
      "2021-12-07T07:45:15.501088",
      "2021-12-07T07:45:41.608747",
      "2021-12-07T07:46:07.725036",
      "2021-12-07T07:46:33.788679",
      "2021-12-07T07:46:59.959825",
      "2021-12-07T07:47:26.143324",
      "2021-12-07T07:47:52.290363",
      "2021-12-07T07:48:18.430133",
      "2021-12-07T07:48:44.584293",
      "2021-12-07T07:49:10.651173",
      "2021-12-07T07:49:36.838960",
      "2021-12-07T07:50:03.000041",
      "2021-12-07T07:50:29.090024",
      "2021-12-07T07:50:55.194856",
      "2021-12-07T07:51:21.370779",
      "2021-12-07T07:51:47.585544",
      "2021-12-07T07:52:13.747981",
      "2021-12-07T07:52:39.895332",
      "2021-12-07T07:53:06.135451"
    ],
    "values": [
      0.376250684261322,
      0.4199346601963043,
      0.4252523183822632,
      0.4269076883792877,
      0.4303649067878723,
      0.43465712666511536,
      0.43965253233909607,
      0.4428313970565796,
      0.4447943866252899,
      0.4468013346195221,
      0.44845670461654663,
      0.45132794976234436,
      0.4536571800708771,
      0.4537157714366913,
      0.4553711414337158,
      0.45611825585365295,
      0.45666027069091797,
      0.4572901725769043,
      0.4581105411052704,
      0.4597073197364807,
      0.45900413393974304,
      0.4593117833137512,
      0.4597512483596802,
      0.45988309383392334,
      0.4601907432079315,
      0.461567759513855,
      0.46133336424827576,
      0.46184608340263367,
      0.4619632959365845,
      0.46187537908554077,
      0.4641460180282593,
      0.46303269267082214,
      0.4632817208766937,
      0.4644683003425598,
      0.46336960792541504,
      0.4641313850879669,
      0.465317964553833,
      0.46682682633399963,
      0.4646148085594177,
      0.46544981002807617,
      0.46521541476249695,
      0.4655669927597046,
      0.46663638949394226,
      0.46728095412254333,
      0.4680427312850952,
      0.46615296602249146,
      0.46678289771080017,
      0.4676911234855652,
      0.46754464507102966,
      0.46682682633399963,
      0.46818920969963074,
      0.4698299169540405,
      0.4694783389568329,
      0.46914142370224,
      0.47043055295944214,
      0.4706942141056061,
      0.4697713255882263,
      0.47000572085380554,
      0.4690828025341034,
      0.46981528401374817,
      0.4714120328426361,
      0.4703572988510132,
      0.4718661606311798,
      0.47196871042251587,
      0.47227632999420166,
      0.47170501947402954,
      0.4728330075740814,
      0.47182220220565796,
      0.4720419645309448,
      0.4734189808368683,
      0.4737119674682617,
      0.47482532262802124,
      0.4729648530483246,
      0.47588005661964417,
      0.47309669852256775,
      0.4747813642024994,
      0.4743565320968628,
      0.4752647876739502,
      0.4750157594680786,
      0.47573354840278625,
      0.47476670145988464,
      0.4754991829395294,
      0.4768029451370239,
      0.47588005661964417,
      0.4751769006252289,
      0.4764513671398163,
      0.47706663608551025,
      0.4773889183998108,
      0.47604119777679443,
      0.4771984815597534,
      0.47718381881713867,
      0.4786341190338135,
      0.4786634147167206,
      0.47757935523986816,
      0.47715452313423157,
      0.4785022735595703,
      0.4771691858768463,
      0.4792640209197998,
      0.4794691205024719,
      0.47839972376823425
    ]
  },
  "loss": {
    "steps": [
      0,
      1,
      2,
      3,
      4,
      5,
      6,
      7,
      8,
      9,
      10,
      11,
      12,
      13,
      14,
      15,
      16,
      17,
      18,
      19,
      20,
      21,
      22,
      23,
      24,
      25,
      26,
      27,
      28,
      29,
      30,
      31,
      32,
      33,
      34,
      35,
      36,
      37,
      38,
      39,
      40,
      41,
      42,
      43,
      44,
      45,
      46,
      47,
      48,
      49,
      50,
      51,
      52,
      53,
      54,
      55,
      56,
      57,
      58,
      59,
      60,
      61,
      62,
      63,
      64,
      65,
      66,
      67,
      68,
      69,
      70,
      71,
      72,
      73,
      74,
      75,
      76,
      77,
      78,
      79,
      80,
      81,
      82,
      83,
      84,
      85,
      86,
      87,
      88,
      89,
      90,
      91,
      92,
      93,
      94,
      95,
      96,
      97,
      98,
      99
    ],
    "timestamps": [
      "2021-12-07T07:09:50.401417",
      "2021-12-07T07:10:17.293996",
      "2021-12-07T07:10:43.980368",
      "2021-12-07T07:11:10.201504",
      "2021-12-07T07:11:36.436860",
      "2021-12-07T07:12:02.561219",
      "2021-12-07T07:12:28.783387",
      "2021-12-07T07:12:55.031972",
      "2021-12-07T07:13:21.197769",
      "2021-12-07T07:13:47.962908",
      "2021-12-07T07:14:14.861805",
      "2021-12-07T07:14:41.665769",
      "2021-12-07T07:15:08.348973",
      "2021-12-07T07:15:35.135777",
      "2021-12-07T07:16:01.891802",
      "2021-12-07T07:16:28.652534",
      "2021-12-07T07:16:55.372943",
      "2021-12-07T07:17:22.150267",
      "2021-12-07T07:17:48.820820",
      "2021-12-07T07:18:15.009835",
      "2021-12-07T07:18:41.292272",
      "2021-12-07T07:19:07.537999",
      "2021-12-07T07:19:33.699853",
      "2021-12-07T07:19:59.914598",
      "2021-12-07T07:20:26.034520",
      "2021-12-07T07:20:52.216498",
      "2021-12-07T07:21:18.321122",
      "2021-12-07T07:21:44.585993",
      "2021-12-07T07:22:10.784571",
      "2021-12-07T07:22:36.908240",
      "2021-12-07T07:23:03.117782",
      "2021-12-07T07:23:29.281888",
      "2021-12-07T07:23:55.457989",
      "2021-12-07T07:24:21.515804",
      "2021-12-07T07:24:47.671229",
      "2021-12-07T07:25:13.804075",
      "2021-12-07T07:25:39.889951",
      "2021-12-07T07:26:06.049050",
      "2021-12-07T07:26:32.219302",
      "2021-12-07T07:26:58.269502",
      "2021-12-07T07:27:24.465640",
      "2021-12-07T07:27:50.652233",
      "2021-12-07T07:28:16.811923",
      "2021-12-07T07:28:42.969329",
      "2021-12-07T07:29:09.055926",
      "2021-12-07T07:29:35.245816",
      "2021-12-07T07:30:01.391008",
      "2021-12-07T07:30:27.539107",
      "2021-12-07T07:30:53.726502",
      "2021-12-07T07:31:19.923633",
      "2021-12-07T07:31:46.143389",
      "2021-12-07T07:32:12.205524",
      "2021-12-07T07:32:38.332832",
      "2021-12-07T07:33:04.472743",
      "2021-12-07T07:33:30.745727",
      "2021-12-07T07:33:57.008427",
      "2021-12-07T07:34:23.095217",
      "2021-12-07T07:34:49.256430",
      "2021-12-07T07:35:15.448696",
      "2021-12-07T07:35:41.584640",
      "2021-12-07T07:36:07.622635",
      "2021-12-07T07:36:33.730367",
      "2021-12-07T07:36:59.882745",
      "2021-12-07T07:37:25.960153",
      "2021-12-07T07:37:52.098117",
      "2021-12-07T07:38:18.175257",
      "2021-12-07T07:38:44.293979",
      "2021-12-07T07:39:10.396573",
      "2021-12-07T07:39:36.520542",
      "2021-12-07T07:40:02.531240",
      "2021-12-07T07:40:28.599828",
      "2021-12-07T07:40:54.734675",
      "2021-12-07T07:41:20.824025",
      "2021-12-07T07:41:46.926713",
      "2021-12-07T07:42:13.012767",
      "2021-12-07T07:42:39.062606",
      "2021-12-07T07:43:05.155035",
      "2021-12-07T07:43:31.173524",
      "2021-12-07T07:43:57.289838",
      "2021-12-07T07:44:23.346866",
      "2021-12-07T07:44:49.421561",
      "2021-12-07T07:45:15.501049",
      "2021-12-07T07:45:41.608714",
      "2021-12-07T07:46:07.725014",
      "2021-12-07T07:46:33.788655",
      "2021-12-07T07:46:59.959778",
      "2021-12-07T07:47:26.143299",
      "2021-12-07T07:47:52.290331",
      "2021-12-07T07:48:18.430106",
      "2021-12-07T07:48:44.584268",
      "2021-12-07T07:49:10.651126",
      "2021-12-07T07:49:36.838924",
      "2021-12-07T07:50:03.000009",
      "2021-12-07T07:50:29.089994",
      "2021-12-07T07:50:55.194828",
      "2021-12-07T07:51:21.370754",
      "2021-12-07T07:51:47.585520",
      "2021-12-07T07:52:13.747956",
      "2021-12-07T07:52:39.895302",
      "2021-12-07T07:53:06.135413"
    ],
    "values": [
      3.0984935760498047,
      2.59794545173645,
      2.532504081726074,
      2.492220401763916,
      2.4572956562042236,
      2.4224255084991455,
      2.3806636333465576,
      2.3616156578063965,
      2.3448073863983154,
      2.328803777694702,
      2.313521146774292,
      2.2886393070220947,
      2.278611660003662,
      2.271618127822876,
      2.26442813873291,
      2.2572977542877197,
      2.246063470840454,
      2.2426443099975586,
      2.237107038497925,
      2.2352027893066406,
      2.231334686279297,
      2.2268857955932617,
      2.2252261638641357,
      2.2215516567230225,
      2.218862771987915,
      2.2163751125335693,
      2.212503433227539,
      2.2096309661865234,
      2.2094361782073975,
      2.205838441848755,
      2.2021028995513916,
      2.2012507915496826,
      2.1999306678771973,
      2.1969995498657227,
      2.1938788890838623,
      2.193129539489746,
      2.1895580291748047,
      2.1874940395355225,
      2.1849422454833984,
      2.180455207824707,
      2.180509090423584,
      2.1762726306915283,
      2.173649311065674,
      2.1739859580993652,
      2.171401262283325,
      2.1687510013580322,
      2.167954206466675,
      2.1667933464050293,
      2.1669600009918213,
      2.16264271736145,
      2.1627554893493652,
      2.156381845474243,
      2.156240701675415,
      2.152529239654541,
      2.151153326034546,
      2.149352788925171,
      2.1469693183898926,
      2.146563768386841,
      2.1443443298339844,
      2.1408607959747314,
      2.1366360187530518,
      2.138653039932251,
      2.1333420276641846,
      2.132349729537964,
      2.129154920578003,
      2.130960464477539,
      2.128413677215576,
      2.1293134689331055,
      2.1252119541168213,
      2.1228201389312744,
      2.118544578552246,
      2.119727373123169,
      2.1174378395080566,
      2.1155755519866943,
      2.1161274909973145,
      2.111816644668579,
      2.1112658977508545,
      2.1068387031555176,
      2.1052253246307373,
      2.1022536754608154,
      2.102571487426758,
      2.106518268585205,
      2.0995981693267822,
      2.097299098968506,
      2.0958335399627686,
      2.0950117111206055,
      2.0940537452697754,
      2.091428518295288,
      2.0907371044158936,
      2.0886268615722656,
      2.0859217643737793,
      2.083789825439453,
      2.0821149349212646,
      2.0842857360839844,
      2.082261085510254,
      2.080894947052002,
      2.080075979232788,
      2.0770044326782227,
      2.074704885482788,
      2.0748989582061768
    ]
  },
  "precision": {
    "steps": [
      0,
      1,
      2,
      3,
      4,
      5,
      6,
      7,
      8,
      9,
      10,
      11,
      12,
      13,
      14,
      15,
      16,
      17,
      18,
      19,
      20,
      21,
      22,
      23,
      24,
      25,
      26,
      27,
      28,
      29,
      30,
      31,
      32,
      33,
      34,
      35,
      36,
      37,
      38,
      39,
      40,
      41,
      42,
      43,
      44,
      45,
      46,
      47,
      48,
      49,
      50,
      51,
      52,
      53,
      54,
      55,
      56,
      57,
      58,
      59,
      60,
      61,
      62,
      63,
      64,
      65,
      66,
      67,
      68,
      69,
      70,
      71,
      72,
      73,
      74,
      75,
      76,
      77,
      78,
      79,
      80,
      81,
      82,
      83,
      84,
      85,
      86,
      87,
      88,
      89,
      90,
      91,
      92,
      93,
      94,
      95,
      96,
      97,
      98,
      99
    ],
    "timestamps": [
      "2021-12-07T07:09:50.401466",
      "2021-12-07T07:10:17.294041",
      "2021-12-07T07:10:43.980408",
      "2021-12-07T07:11:10.201555",
      "2021-12-07T07:11:36.436897",
      "2021-12-07T07:12:02.561259",
      "2021-12-07T07:12:28.783420",
      "2021-12-07T07:12:55.032020",
      "2021-12-07T07:13:21.197802",
      "2021-12-07T07:13:47.962958",
      "2021-12-07T07:14:14.861839",
      "2021-12-07T07:14:41.665822",
      "2021-12-07T07:15:08.349009",
      "2021-12-07T07:15:35.135823",
      "2021-12-07T07:16:01.891839",
      "2021-12-07T07:16:28.652570",
      "2021-12-07T07:16:55.372999",
      "2021-12-07T07:17:22.150310",
      "2021-12-07T07:17:48.820857",
      "2021-12-07T07:18:15.009870",
      "2021-12-07T07:18:41.292313",
      "2021-12-07T07:19:07.538034",
      "2021-12-07T07:19:33.699899",
      "2021-12-07T07:19:59.914640",
      "2021-12-07T07:20:26.034561",
      "2021-12-07T07:20:52.216539",
      "2021-12-07T07:21:18.321157",
      "2021-12-07T07:21:44.586035",
      "2021-12-07T07:22:10.784605",
      "2021-12-07T07:22:36.908285",
      "2021-12-07T07:23:03.117825",
      "2021-12-07T07:23:29.281922",
      "2021-12-07T07:23:55.458035",
      "2021-12-07T07:24:21.515840",
      "2021-12-07T07:24:47.671271",
      "2021-12-07T07:25:13.804130",
      "2021-12-07T07:25:39.889985",
      "2021-12-07T07:26:06.049095",
      "2021-12-07T07:26:32.219343",
      "2021-12-07T07:26:58.269544",
      "2021-12-07T07:27:24.465689",
      "2021-12-07T07:27:50.652275",
      "2021-12-07T07:28:16.811968",
      "2021-12-07T07:28:42.969364",
      "2021-12-07T07:29:09.055970",
      "2021-12-07T07:29:35.245851",
      "2021-12-07T07:30:01.391050",
      "2021-12-07T07:30:27.539142",
      "2021-12-07T07:30:53.726548",
      "2021-12-07T07:31:19.923678",
      "2021-12-07T07:31:46.143431",
      "2021-12-07T07:32:12.205559",
      "2021-12-07T07:32:38.332866",
      "2021-12-07T07:33:04.472775",
      "2021-12-07T07:33:30.745773",
      "2021-12-07T07:33:57.008458",
      "2021-12-07T07:34:23.095261",
      "2021-12-07T07:34:49.256474",
      "2021-12-07T07:35:15.448731",
      "2021-12-07T07:35:41.584685",
      "2021-12-07T07:36:07.622677",
      "2021-12-07T07:36:33.730409",
      "2021-12-07T07:36:59.882785",
      "2021-12-07T07:37:25.960196",
      "2021-12-07T07:37:52.098159",
      "2021-12-07T07:38:18.175301",
      "2021-12-07T07:38:44.294027",
      "2021-12-07T07:39:10.396617",
      "2021-12-07T07:39:36.520588",
      "2021-12-07T07:40:02.531286",
      "2021-12-07T07:40:28.599877",
      "2021-12-07T07:40:54.734712",
      "2021-12-07T07:41:20.824059",
      "2021-12-07T07:41:46.926759",
      "2021-12-07T07:42:13.012809",
      "2021-12-07T07:42:39.062648",
      "2021-12-07T07:43:05.155089",
      "2021-12-07T07:43:31.173567",
      "2021-12-07T07:43:57.289896",
      "2021-12-07T07:44:23.346899",
      "2021-12-07T07:44:49.421609",
      "2021-12-07T07:45:15.501099",
      "2021-12-07T07:45:41.608757",
      "2021-12-07T07:46:07.725045",
      "2021-12-07T07:46:33.788689",
      "2021-12-07T07:46:59.959835",
      "2021-12-07T07:47:26.143333",
      "2021-12-07T07:47:52.290373",
      "2021-12-07T07:48:18.430142",
      "2021-12-07T07:48:44.584303",
      "2021-12-07T07:49:10.651183",
      "2021-12-07T07:49:36.838972",
      "2021-12-07T07:50:03.000052",
      "2021-12-07T07:50:29.090034",
      "2021-12-07T07:50:55.194865",
      "2021-12-07T07:51:21.370788",
      "2021-12-07T07:51:47.585554",
      "2021-12-07T07:52:13.747990",
      "2021-12-07T07:52:39.895345",
      "2021-12-07T07:53:06.135463"
    ],
    "values": [
      0.7870168685913086,
      0.8681690692901611,
      0.8867455124855042,
      0.8939571380615234,
      0.900019645690918,
      0.9024370908737183,
      0.9083948731422424,
      0.9083029627799988,
      0.9106134176254272,
      0.9100250005722046,
      0.9106051921844482,
      0.9108040928840637,
      0.9107183814048767,
      0.9113271832466125,
      0.9107943177223206,
      0.9089764356613159,
      0.9114634990692139,
      0.910038411617279,
      0.9108387231826782,
      0.9106402397155762,
      0.9105107188224792,
      0.9102933406829834,
      0.9104364514350891,
      0.9108434915542603,
      0.9110614061355591,
      0.9111925363540649,
      0.9111287593841553,
      0.910965621471405,
      0.9095752835273743,
      0.9091525673866272,
      0.911429226398468,
      0.9092003107070923,
      0.9112309813499451,
      0.9107001423835754,
      0.9102491736412048,
      0.9094939231872559,
      0.9103590846061707,
      0.9107954502105713,
      0.910096287727356,
      0.9116829633712769,
      0.9107544422149658,
      0.9110393524169922,
      0.9091486930847168,
      0.9084804058074951,
      0.9103291034698486,
      0.9097497463226318,
      0.909716010093689,
      0.9092943668365479,
      0.9105903506278992,
      0.9094334244728088,
      0.9078447222709656,
      0.9116069674491882,
      0.9088236093521118,
      0.9109367728233337,
      0.9098211526870728,
      0.9089455604553223,
      0.9086155295372009,
      0.9112666249275208,
      0.9107633829116821,
      0.9082942008972168,
      0.9110091328620911,
      0.9096697568893433,
      0.9101914167404175,
      0.9082382321357727,
      0.9088290929794312,
      0.9087420105934143,
      0.908687949180603,
      0.908332109451294,
      0.9079487323760986,
      0.9106054306030273,
      0.9097342491149902,
      0.9106780290603638,
      0.9099171757698059,
      0.9097833037376404,
      0.9080802798271179,
      0.9084233045578003,
      0.9100792407989502,
      0.9096882939338684,
      0.9092308282852173,
      0.9119735360145569,
      0.9071820974349976,
      0.9088473916053772,
      0.9084509611129761,
      0.9091042280197144,
      0.9095565676689148,
      0.9087115526199341,
      0.9096774458885193,
      0.9094135165214539,
      0.9075924158096313,
      0.9091505408287048,
      0.9104368686676025,
      0.9103611707687378,
      0.9101730585098267,
      0.9096216559410095,
      0.9074881672859192,
      0.9074270129203796,
      0.9084893465042114,
      0.9094089269638062,
      0.9103651642799377,
      0.9087762832641602
    ]
  },
  "recall": {
    "steps": [
      0,
      1,
      2,
      3,
      4,
      5,
      6,
      7,
      8,
      9,
      10,
      11,
      12,
      13,
      14,
      15,
      16,
      17,
      18,
      19,
      20,
      21,
      22,
      23,
      24,
      25,
      26,
      27,
      28,
      29,
      30,
      31,
      32,
      33,
      34,
      35,
      36,
      37,
      38,
      39,
      40,
      41,
      42,
      43,
      44,
      45,
      46,
      47,
      48,
      49,
      50,
      51,
      52,
      53,
      54,
      55,
      56,
      57,
      58,
      59,
      60,
      61,
      62,
      63,
      64,
      65,
      66,
      67,
      68,
      69,
      70,
      71,
      72,
      73,
      74,
      75,
      76,
      77,
      78,
      79,
      80,
      81,
      82,
      83,
      84,
      85,
      86,
      87,
      88,
      89,
      90,
      91,
      92,
      93,
      94,
      95,
      96,
      97,
      98,
      99
    ],
    "timestamps": [
      "2021-12-07T07:09:50.401474",
      "2021-12-07T07:10:17.294049",
      "2021-12-07T07:10:43.980416",
      "2021-12-07T07:11:10.201567",
      "2021-12-07T07:11:36.436906",
      "2021-12-07T07:12:02.561267",
      "2021-12-07T07:12:28.783429",
      "2021-12-07T07:12:55.032029",
      "2021-12-07T07:13:21.197811",
      "2021-12-07T07:13:47.962967",
      "2021-12-07T07:14:14.861848",
      "2021-12-07T07:14:41.665831",
      "2021-12-07T07:15:08.349018",
      "2021-12-07T07:15:35.135832",
      "2021-12-07T07:16:01.891847",
      "2021-12-07T07:16:28.652578",
      "2021-12-07T07:16:55.373010",
      "2021-12-07T07:17:22.150320",
      "2021-12-07T07:17:48.820865",
      "2021-12-07T07:18:15.009878",
      "2021-12-07T07:18:41.292322",
      "2021-12-07T07:19:07.538043",
      "2021-12-07T07:19:33.699908",
      "2021-12-07T07:19:59.914650",
      "2021-12-07T07:20:26.034573",
      "2021-12-07T07:20:52.216548",
      "2021-12-07T07:21:18.321166",
      "2021-12-07T07:21:44.586044",
      "2021-12-07T07:22:10.784614",
      "2021-12-07T07:22:36.908297",
      "2021-12-07T07:23:03.117834",
      "2021-12-07T07:23:29.281931",
      "2021-12-07T07:23:55.458045",
      "2021-12-07T07:24:21.515849",
      "2021-12-07T07:24:47.671280",
      "2021-12-07T07:25:13.804140",
      "2021-12-07T07:25:39.889994",
      "2021-12-07T07:26:06.049105",
      "2021-12-07T07:26:32.219352",
      "2021-12-07T07:26:58.269553",
      "2021-12-07T07:27:24.465701",
      "2021-12-07T07:27:50.652284",
      "2021-12-07T07:28:16.811978",
      "2021-12-07T07:28:42.969372",
      "2021-12-07T07:29:09.055979",
      "2021-12-07T07:29:35.245860",
      "2021-12-07T07:30:01.391060",
      "2021-12-07T07:30:27.539150",
      "2021-12-07T07:30:53.726560",
      "2021-12-07T07:31:19.923687",
      "2021-12-07T07:31:46.143441",
      "2021-12-07T07:32:12.205568",
      "2021-12-07T07:32:38.332875",
      "2021-12-07T07:33:04.472783",
      "2021-12-07T07:33:30.745783",
      "2021-12-07T07:33:57.008466",
      "2021-12-07T07:34:23.095270",
      "2021-12-07T07:34:49.256483",
      "2021-12-07T07:35:15.448740",
      "2021-12-07T07:35:41.584695",
      "2021-12-07T07:36:07.622686",
      "2021-12-07T07:36:33.730418",
      "2021-12-07T07:36:59.882795",
      "2021-12-07T07:37:25.960206",
      "2021-12-07T07:37:52.098168",
      "2021-12-07T07:38:18.175310",
      "2021-12-07T07:38:44.294038",
      "2021-12-07T07:39:10.396626",
      "2021-12-07T07:39:36.520598",
      "2021-12-07T07:40:02.531298",
      "2021-12-07T07:40:28.599889",
      "2021-12-07T07:40:54.734721",
      "2021-12-07T07:41:20.824067",
      "2021-12-07T07:41:46.926768",
      "2021-12-07T07:42:13.012818",
      "2021-12-07T07:42:39.062657",
      "2021-12-07T07:43:05.155098",
      "2021-12-07T07:43:31.173576",
      "2021-12-07T07:43:57.289908",
      "2021-12-07T07:44:23.346908",
      "2021-12-07T07:44:49.421621",
      "2021-12-07T07:45:15.501108",
      "2021-12-07T07:45:41.608766",
      "2021-12-07T07:46:07.725053",
      "2021-12-07T07:46:33.788697",
      "2021-12-07T07:46:59.959844",
      "2021-12-07T07:47:26.143341",
      "2021-12-07T07:47:52.290382",
      "2021-12-07T07:48:18.430151",
      "2021-12-07T07:48:44.584311",
      "2021-12-07T07:49:10.651192",
      "2021-12-07T07:49:36.838984",
      "2021-12-07T07:50:03.000061",
      "2021-12-07T07:50:29.090044",
      "2021-12-07T07:50:55.194874",
      "2021-12-07T07:51:21.370797",
      "2021-12-07T07:51:47.585562",
      "2021-12-07T07:52:13.747998",
      "2021-12-07T07:52:39.895357",
      "2021-12-07T07:53:06.135475"
    ],
    "values": [
      0.23834288120269775,
      0.33070623874664307,
      0.3340023159980774,
      0.33504241704940796,
      0.3350863456726074,
      0.33631688356399536,
      0.3389098048210144,
      0.33926138281822205,
      0.34011104702949524,
      0.3412243723869324,
      0.3427625596523285,
      0.3447988033294678,
      0.3465273976325989,
      0.3473331034183502,
      0.34819740056991577,
      0.34890058636665344,
      0.3494279384613037,
      0.3504680395126343,
      0.350482702255249,
      0.3506731390953064,
      0.3510100543498993,
      0.3518597185611725,
      0.3514348864555359,
      0.35229918360710144,
      0.35219666361808777,
      0.3533685803413391,
      0.3524896502494812,
      0.3526800870895386,
      0.352621465921402,
      0.3534564971923828,
      0.3535004258155823,
      0.3541010618209839,
      0.35383737087249756,
      0.3542182445526123,
      0.35374948382377625,
      0.35462841391563416,
      0.354672372341156,
      0.35508254170417786,
      0.3544233441352844,
      0.3555220365524292,
      0.3558003604412079,
      0.3555513322353363,
      0.3560786843299866,
      0.3567086160182953,
      0.3573678135871887,
      0.3567672073841095,
      0.356620728969574,
      0.35714808106422424,
      0.3574703633785248,
      0.357162743806839,
      0.3570308983325958,
      0.35851046442985535,
      0.35774871706962585,
      0.35884740948677063,
      0.3584079146385193,
      0.3581295907497406,
      0.3588913381099701,
      0.35865697264671326,
      0.3589792549610138,
      0.3598288893699646,
      0.3605174124240875,
      0.35996073484420776,
      0.36018046736717224,
      0.3603123128414154,
      0.36054670810699463,
      0.36075180768966675,
      0.3603709042072296,
      0.3602830171585083,
      0.35993143916130066,
      0.36111801862716675,
      0.36157214641571045,
      0.3614403009414673,
      0.36223137378692627,
      0.36223137378692627,
      0.3613670766353607,
      0.36242181062698364,
      0.3617625832557678,
      0.36299312114715576,
      0.36347654461860657,
      0.36318355798721313,
      0.3626708388328552,
      0.36281734704971313,
      0.3629784882068634,
      0.3637988269329071,
      0.36417973041534424,
      0.3636816442012787,
      0.3635351359844208,
      0.3641357719898224,
      0.3645898997783661,
      0.3653223514556885,
      0.36483892798423767,
      0.36554208397865295,
      0.36514657735824585,
      0.36520516872406006,
      0.36571788787841797,
      0.3645898997783661,
      0.36605480313301086,
      0.3655860424041748,
      0.36630386114120483,
      0.36542490124702454
    ]
  },
  "val_categorical_accuracy": {
    "steps": [
      0,
      1,
      2,
      3,
      4,
      5,
      6,
      7,
      8,
      9,
      10,
      11,
      12,
      13,
      14,
      15,
      16,
      17,
      18,
      19,
      20,
      21,
      22,
      23,
      24,
      25,
      26,
      27,
      28,
      29,
      30,
      31,
      32,
      33,
      34,
      35,
      36,
      37,
      38,
      39,
      40,
      41,
      42,
      43,
      44,
      45,
      46,
      47,
      48,
      49,
      50,
      51,
      52,
      53,
      54,
      55,
      56,
      57,
      58,
      59,
      60,
      61,
      62,
      63,
      64,
      65,
      66,
      67,
      68,
      69,
      70,
      71,
      72,
      73,
      74,
      75,
      76,
      77,
      78,
      79,
      80,
      81,
      82,
      83,
      84,
      85,
      86,
      87,
      88,
      89,
      90,
      91,
      92,
      93,
      94,
      95,
      96,
      97,
      98,
      99
    ],
    "timestamps": [
      "2021-12-07T07:09:50.401490",
      "2021-12-07T07:10:17.294065",
      "2021-12-07T07:10:43.980433",
      "2021-12-07T07:11:10.201590",
      "2021-12-07T07:11:36.436922",
      "2021-12-07T07:12:02.561283",
      "2021-12-07T07:12:28.783445",
      "2021-12-07T07:12:55.032047",
      "2021-12-07T07:13:21.197827",
      "2021-12-07T07:13:47.962985",
      "2021-12-07T07:14:14.861865",
      "2021-12-07T07:14:41.665849",
      "2021-12-07T07:15:08.349034",
      "2021-12-07T07:15:35.135849",
      "2021-12-07T07:16:01.891864",
      "2021-12-07T07:16:28.652594",
      "2021-12-07T07:16:55.373033",
      "2021-12-07T07:17:22.150337",
      "2021-12-07T07:17:48.820882",
      "2021-12-07T07:18:15.009895",
      "2021-12-07T07:18:41.292340",
      "2021-12-07T07:19:07.538059",
      "2021-12-07T07:19:33.699926",
      "2021-12-07T07:19:59.914668",
      "2021-12-07T07:20:26.034595",
      "2021-12-07T07:20:52.216566",
      "2021-12-07T07:21:18.321182",
      "2021-12-07T07:21:44.586060",
      "2021-12-07T07:22:10.784631",
      "2021-12-07T07:22:36.908320",
      "2021-12-07T07:23:03.117852",
      "2021-12-07T07:23:29.281947",
      "2021-12-07T07:23:55.458062",
      "2021-12-07T07:24:21.515865",
      "2021-12-07T07:24:47.671299",
      "2021-12-07T07:25:13.804158",
      "2021-12-07T07:25:39.890010",
      "2021-12-07T07:26:06.049123",
      "2021-12-07T07:26:32.219370",
      "2021-12-07T07:26:58.269571",
      "2021-12-07T07:27:24.465724",
      "2021-12-07T07:27:50.652302",
      "2021-12-07T07:28:16.811996",
      "2021-12-07T07:28:42.969388",
      "2021-12-07T07:29:09.055998",
      "2021-12-07T07:29:35.245876",
      "2021-12-07T07:30:01.391091",
      "2021-12-07T07:30:27.539167",
      "2021-12-07T07:30:53.726583",
      "2021-12-07T07:31:19.923705",
      "2021-12-07T07:31:46.143459",
      "2021-12-07T07:32:12.205584",
      "2021-12-07T07:32:38.332891",
      "2021-12-07T07:33:04.472799",
      "2021-12-07T07:33:30.745801",
      "2021-12-07T07:33:57.008483",
      "2021-12-07T07:34:23.095288",
      "2021-12-07T07:34:49.256502",
      "2021-12-07T07:35:15.448756",
      "2021-12-07T07:35:41.584713",
      "2021-12-07T07:36:07.622704",
      "2021-12-07T07:36:33.730436",
      "2021-12-07T07:36:59.882813",
      "2021-12-07T07:37:25.960223",
      "2021-12-07T07:37:52.098186",
      "2021-12-07T07:38:18.175328",
      "2021-12-07T07:38:44.294062",
      "2021-12-07T07:39:10.396644",
      "2021-12-07T07:39:36.520616",
      "2021-12-07T07:40:02.531321",
      "2021-12-07T07:40:28.599912",
      "2021-12-07T07:40:54.734737",
      "2021-12-07T07:41:20.824083",
      "2021-12-07T07:41:46.926786",
      "2021-12-07T07:42:13.012836",
      "2021-12-07T07:42:39.062675",
      "2021-12-07T07:43:05.155116",
      "2021-12-07T07:43:31.173594",
      "2021-12-07T07:43:57.289931",
      "2021-12-07T07:44:23.346924",
      "2021-12-07T07:44:49.421644",
      "2021-12-07T07:45:15.501126",
      "2021-12-07T07:45:41.608784",
      "2021-12-07T07:46:07.725070",
      "2021-12-07T07:46:33.788714",
      "2021-12-07T07:46:59.959862",
      "2021-12-07T07:47:26.143358",
      "2021-12-07T07:47:52.290400",
      "2021-12-07T07:48:18.430167",
      "2021-12-07T07:48:44.584328",
      "2021-12-07T07:49:10.651211",
      "2021-12-07T07:49:36.839007",
      "2021-12-07T07:50:03.000079",
      "2021-12-07T07:50:29.090062",
      "2021-12-07T07:50:55.194889",
      "2021-12-07T07:51:21.370814",
      "2021-12-07T07:51:47.585578",
      "2021-12-07T07:52:13.748016",
      "2021-12-07T07:52:39.895380",
      "2021-12-07T07:53:06.135498"
    ],
    "values": [
      0.3801313638687134,
      0.37385642528533936,
      0.3689303398132324,
      0.3622449040412903,
      0.3645320236682892,
      0.3599577844142914,
      0.3501642048358917,
      0.3562631905078888,
      0.3536241948604584,
      0.35509032011032104,
      0.3455899655818939,
      0.348991334438324,
      0.3494018316268921,
      0.34037062525749207,
      0.3455899655818939,
      0.3428923189640045,
      0.339784175157547,
      0.33960825204849243,
      0.33960825204849243,
      0.33720386028289795,
      0.33403706550598145,
      0.3379075825214386,
      0.33497536182403564,
      0.33532723784446716,
      0.3328641653060913,
      0.33122214674949646,
      0.33262959122657776,
      0.3316326439380646,
      0.33174994587898254,
      0.32811400294303894,
      0.3305770456790924,
      0.331515371799469,
      0.32852450013160706,
      0.3292868733406067,
      0.331398069858551,
      0.32576823234558105,
      0.32676517963409424,
      0.3242434859275818,
      0.3270584046840668,
      0.3245953619480133,
      0.32852450013160706,
      0.32441940903663635,
      0.32107672095298767,
      0.3218390941619873,
      0.3241262137889862,
      0.3205489218235016,
      0.3204316198825836,
      0.3191414475440979,
      0.3173234760761261,
      0.3172062039375305,
      0.3204902708530426,
      0.31761670112609863,
      0.3187895715236664,
      0.31568145751953125,
      0.31527093052864075,
      0.316854327917099,
      0.31574007868766785,
      0.31245601177215576,
      0.3149190843105316,
      0.3146258592605591,
      0.31304246187210083,
      0.3149777054786682,
      0.3085854947566986,
      0.31245601177215576,
      0.3100516200065613,
      0.3149190843105316,
      0.30887871980667114,
      0.31016889214515686,
      0.30840957164764404,
      0.3076471984386444,
      0.30700209736824036,
      0.30741262435913086,
      0.30882006883621216,
      0.304949551820755,
      0.3077058494091034,
      0.30606380105018616,
      0.304949551820755,
      0.3091132938861847,
      0.3062983751296997,
      0.30606380105018616,
      0.3039526045322418,
      0.30371803045272827,
      0.30283838510513306,
      0.3016068637371063,
      0.3036007583141327,
      0.30383533239364624,
      0.302193284034729,
      0.3034834563732147,
      0.30096176266670227,
      0.3018414378166199,
      0.30002346634864807,
      0.29879194498062134,
      0.2980295419692993,
      0.3007858395576477,
      0.2981468439102173,
      0.29638752341270447,
      0.299437016248703,
      0.296680748462677,
      0.2956838011741638,
      0.29820549488067627
    ]
  },
  "val_loss": {
    "steps": [
      0,
      1,
      2,
      3,
      4,
      5,
      6,
      7,
      8,
      9,
      10,
      11,
      12,
      13,
      14,
      15,
      16,
      17,
      18,
      19,
      20,
      21,
      22,
      23,
      24,
      25,
      26,
      27,
      28,
      29,
      30,
      31,
      32,
      33,
      34,
      35,
      36,
      37,
      38,
      39,
      40,
      41,
      42,
      43,
      44,
      45,
      46,
      47,
      48,
      49,
      50,
      51,
      52,
      53,
      54,
      55,
      56,
      57,
      58,
      59,
      60,
      61,
      62,
      63,
      64,
      65,
      66,
      67,
      68,
      69,
      70,
      71,
      72,
      73,
      74,
      75,
      76,
      77,
      78,
      79,
      80,
      81,
      82,
      83,
      84,
      85,
      86,
      87,
      88,
      89,
      90,
      91,
      92,
      93,
      94,
      95,
      96,
      97,
      98,
      99
    ],
    "timestamps": [
      "2021-12-07T07:09:50.401482",
      "2021-12-07T07:10:17.294057",
      "2021-12-07T07:10:43.980425",
      "2021-12-07T07:11:10.201578",
      "2021-12-07T07:11:36.436913",
      "2021-12-07T07:12:02.561275",
      "2021-12-07T07:12:28.783437",
      "2021-12-07T07:12:55.032038",
      "2021-12-07T07:13:21.197819",
      "2021-12-07T07:13:47.962976",
      "2021-12-07T07:14:14.861856",
      "2021-12-07T07:14:41.665840",
      "2021-12-07T07:15:08.349026",
      "2021-12-07T07:15:35.135841",
      "2021-12-07T07:16:01.891856",
      "2021-12-07T07:16:28.652586",
      "2021-12-07T07:16:55.373022",
      "2021-12-07T07:17:22.150329",
      "2021-12-07T07:17:48.820874",
      "2021-12-07T07:18:15.009886",
      "2021-12-07T07:18:41.292331",
      "2021-12-07T07:19:07.538051",
      "2021-12-07T07:19:33.699917",
      "2021-12-07T07:19:59.914658",
      "2021-12-07T07:20:26.034584",
      "2021-12-07T07:20:52.216557",
      "2021-12-07T07:21:18.321174",
      "2021-12-07T07:21:44.586052",
      "2021-12-07T07:22:10.784622",
      "2021-12-07T07:22:36.908308",
      "2021-12-07T07:23:03.117843",
      "2021-12-07T07:23:29.281939",
      "2021-12-07T07:23:55.458053",
      "2021-12-07T07:24:21.515857",
      "2021-12-07T07:24:47.671289",
      "2021-12-07T07:25:13.804149",
      "2021-12-07T07:25:39.890002",
      "2021-12-07T07:26:06.049114",
      "2021-12-07T07:26:32.219361",
      "2021-12-07T07:26:58.269562",
      "2021-12-07T07:27:24.465713",
      "2021-12-07T07:27:50.652293",
      "2021-12-07T07:28:16.811987",
      "2021-12-07T07:28:42.969380",
      "2021-12-07T07:29:09.055989",
      "2021-12-07T07:29:35.245868",
      "2021-12-07T07:30:01.391080",
      "2021-12-07T07:30:27.539158",
      "2021-12-07T07:30:53.726571",
      "2021-12-07T07:31:19.923696",
      "2021-12-07T07:31:46.143450",
      "2021-12-07T07:32:12.205576",
      "2021-12-07T07:32:38.332883",
      "2021-12-07T07:33:04.472791",
      "2021-12-07T07:33:30.745792",
      "2021-12-07T07:33:57.008475",
      "2021-12-07T07:34:23.095279",
      "2021-12-07T07:34:49.256493",
      "2021-12-07T07:35:15.448748",
      "2021-12-07T07:35:41.584703",
      "2021-12-07T07:36:07.622695",
      "2021-12-07T07:36:33.730427",
      "2021-12-07T07:36:59.882804",
      "2021-12-07T07:37:25.960214",
      "2021-12-07T07:37:52.098177",
      "2021-12-07T07:38:18.175319",
      "2021-12-07T07:38:44.294050",
      "2021-12-07T07:39:10.396635",
      "2021-12-07T07:39:36.520607",
      "2021-12-07T07:40:02.531310",
      "2021-12-07T07:40:28.599901",
      "2021-12-07T07:40:54.734729",
      "2021-12-07T07:41:20.824075",
      "2021-12-07T07:41:46.926777",
      "2021-12-07T07:42:13.012827",
      "2021-12-07T07:42:39.062666",
      "2021-12-07T07:43:05.155107",
      "2021-12-07T07:43:31.173585",
      "2021-12-07T07:43:57.289920",
      "2021-12-07T07:44:23.346916",
      "2021-12-07T07:44:49.421632",
      "2021-12-07T07:45:15.501117",
      "2021-12-07T07:45:41.608775",
      "2021-12-07T07:46:07.725062",
      "2021-12-07T07:46:33.788705",
      "2021-12-07T07:46:59.959853",
      "2021-12-07T07:47:26.143349",
      "2021-12-07T07:47:52.290391",
      "2021-12-07T07:48:18.430159",
      "2021-12-07T07:48:44.584320",
      "2021-12-07T07:49:10.651202",
      "2021-12-07T07:49:36.838995",
      "2021-12-07T07:50:03.000070",
      "2021-12-07T07:50:29.090053",
      "2021-12-07T07:50:55.194882",
      "2021-12-07T07:51:21.370805",
      "2021-12-07T07:51:47.585570",
      "2021-12-07T07:52:13.748007",
      "2021-12-07T07:52:39.895369",
      "2021-12-07T07:53:06.135486"
    ],
    "values": [
      3.042658805847168,
      3.1472396850585938,
      3.1817052364349365,
      3.2245683670043945,
      3.223910331726074,
      3.289022922515869,
      3.337637424468994,
      3.3319311141967773,
      3.3607380390167236,
      3.3703629970550537,
      3.3931095600128174,
      3.4297940731048584,
      3.427757740020752,
      3.4498109817504883,
      3.439767360687256,
      3.4783592224121094,
      3.4786219596862793,
      3.4792189598083496,
      3.485750913619995,
      3.4878127574920654,
      3.4996864795684814,
      3.4985885620117188,
      3.518918514251709,
      3.513065814971924,
      3.531965732574463,
      3.538861036300659,
      3.5317907333374023,
      3.5505497455596924,
      3.5550990104675293,
      3.543546438217163,
      3.5529139041900635,
      3.551008462905884,
      3.5661263465881348,
      3.5613555908203125,
      3.5682835578918457,
      3.580690383911133,
      3.5949692726135254,
      3.5965747833251953,
      3.5944747924804688,
      3.607229709625244,
      3.600144386291504,
      3.620846748352051,
      3.6368672847747803,
      3.64005708694458,
      3.6280179023742676,
      3.640718936920166,
      3.649040460586548,
      3.6452488899230957,
      3.6562423706054688,
      3.661081075668335,
      3.6634299755096436,
      3.6708030700683594,
      3.6648385524749756,
      3.680983304977417,
      3.6901443004608154,
      3.675457715988159,
      3.6841676235198975,
      3.7046496868133545,
      3.698796033859253,
      3.7035062313079834,
      3.7179229259490967,
      3.711820363998413,
      3.738684892654419,
      3.7259724140167236,
      3.7390096187591553,
      3.7287187576293945,
      3.7417151927948,
      3.7425620555877686,
      3.755035638809204,
      3.7515552043914795,
      3.7600505352020264,
      3.764066696166992,
      3.7614333629608154,
      3.774472951889038,
      3.7592997550964355,
      3.7803609371185303,
      3.784324884414673,
      3.771353006362915,
      3.788581132888794,
      3.7906405925750732,
      3.811549663543701,
      3.8069210052490234,
      3.8179771900177,
      3.8220489025115967,
      3.8150336742401123,
      3.828195333480835,
      3.8434667587280273,
      3.831132411956787,
      3.8416945934295654,
      3.8546206951141357,
      3.845201015472412,
      3.8572499752044678,
      3.8602194786071777,
      3.8610308170318604,
      3.858596086502075,
      3.87072491645813,
      3.869425058364868,
      3.871241807937622,
      3.8963005542755127,
      3.8805735111236572
    ]
  },
  "val_precision": {
    "steps": [
      0,
      1,
      2,
      3,
      4,
      5,
      6,
      7,
      8,
      9,
      10,
      11,
      12,
      13,
      14,
      15,
      16,
      17,
      18,
      19,
      20,
      21,
      22,
      23,
      24,
      25,
      26,
      27,
      28,
      29,
      30,
      31,
      32,
      33,
      34,
      35,
      36,
      37,
      38,
      39,
      40,
      41,
      42,
      43,
      44,
      45,
      46,
      47,
      48,
      49,
      50,
      51,
      52,
      53,
      54,
      55,
      56,
      57,
      58,
      59,
      60,
      61,
      62,
      63,
      64,
      65,
      66,
      67,
      68,
      69,
      70,
      71,
      72,
      73,
      74,
      75,
      76,
      77,
      78,
      79,
      80,
      81,
      82,
      83,
      84,
      85,
      86,
      87,
      88,
      89,
      90,
      91,
      92,
      93,
      94,
      95,
      96,
      97,
      98,
      99
    ],
    "timestamps": [
      "2021-12-07T07:09:50.401499",
      "2021-12-07T07:10:17.294073",
      "2021-12-07T07:10:43.980443",
      "2021-12-07T07:11:10.201602",
      "2021-12-07T07:11:36.436931",
      "2021-12-07T07:12:02.561293",
      "2021-12-07T07:12:28.783452",
      "2021-12-07T07:12:55.032058",
      "2021-12-07T07:13:21.197835",
      "2021-12-07T07:13:47.962996",
      "2021-12-07T07:14:14.861873",
      "2021-12-07T07:14:41.665860",
      "2021-12-07T07:15:08.349042",
      "2021-12-07T07:15:35.135858",
      "2021-12-07T07:16:01.891874",
      "2021-12-07T07:16:28.652603",
      "2021-12-07T07:16:55.373047",
      "2021-12-07T07:17:22.150346",
      "2021-12-07T07:17:48.820890",
      "2021-12-07T07:18:15.009905",
      "2021-12-07T07:18:41.292349",
      "2021-12-07T07:19:07.538067",
      "2021-12-07T07:19:33.699937",
      "2021-12-07T07:19:59.914677",
      "2021-12-07T07:20:26.034606",
      "2021-12-07T07:20:52.216575",
      "2021-12-07T07:21:18.321190",
      "2021-12-07T07:21:44.586068",
      "2021-12-07T07:22:10.784640",
      "2021-12-07T07:22:36.908331",
      "2021-12-07T07:23:03.117861",
      "2021-12-07T07:23:29.281955",
      "2021-12-07T07:23:55.458073",
      "2021-12-07T07:24:21.515873",
      "2021-12-07T07:24:47.671308",
      "2021-12-07T07:25:13.804167",
      "2021-12-07T07:25:39.890019",
      "2021-12-07T07:26:06.049132",
      "2021-12-07T07:26:32.219379",
      "2021-12-07T07:26:58.269583",
      "2021-12-07T07:27:24.465736",
      "2021-12-07T07:27:50.652311",
      "2021-12-07T07:28:16.812005",
      "2021-12-07T07:28:42.969397",
      "2021-12-07T07:29:09.056007",
      "2021-12-07T07:29:35.245891",
      "2021-12-07T07:30:01.391100",
      "2021-12-07T07:30:27.539175",
      "2021-12-07T07:30:53.726594",
      "2021-12-07T07:31:19.923714",
      "2021-12-07T07:31:46.143468",
      "2021-12-07T07:32:12.205592",
      "2021-12-07T07:32:38.332899",
      "2021-12-07T07:33:04.472807",
      "2021-12-07T07:33:30.745811",
      "2021-12-07T07:33:57.008490",
      "2021-12-07T07:34:23.095297",
      "2021-12-07T07:34:49.256510",
      "2021-12-07T07:35:15.448764",
      "2021-12-07T07:35:41.584721",
      "2021-12-07T07:36:07.622716",
      "2021-12-07T07:36:33.730445",
      "2021-12-07T07:36:59.882822",
      "2021-12-07T07:37:25.960232",
      "2021-12-07T07:37:52.098195",
      "2021-12-07T07:38:18.175339",
      "2021-12-07T07:38:44.294073",
      "2021-12-07T07:39:10.396653",
      "2021-12-07T07:39:36.520625",
      "2021-12-07T07:40:02.531335",
      "2021-12-07T07:40:28.599924",
      "2021-12-07T07:40:54.734746",
      "2021-12-07T07:41:20.824091",
      "2021-12-07T07:41:46.926795",
      "2021-12-07T07:42:13.012847",
      "2021-12-07T07:42:39.062684",
      "2021-12-07T07:43:05.155125",
      "2021-12-07T07:43:31.173602",
      "2021-12-07T07:43:57.289942",
      "2021-12-07T07:44:23.346932",
      "2021-12-07T07:44:49.421657",
      "2021-12-07T07:45:15.501135",
      "2021-12-07T07:45:41.608792",
      "2021-12-07T07:46:07.725078",
      "2021-12-07T07:46:33.788721",
      "2021-12-07T07:46:59.959871",
      "2021-12-07T07:47:26.143365",
      "2021-12-07T07:47:52.290409",
      "2021-12-07T07:48:18.430177",
      "2021-12-07T07:48:44.584336",
      "2021-12-07T07:49:10.651220",
      "2021-12-07T07:49:36.839018",
      "2021-12-07T07:50:03.000088",
      "2021-12-07T07:50:29.090071",
      "2021-12-07T07:50:55.194898",
      "2021-12-07T07:51:21.370824",
      "2021-12-07T07:51:47.585586",
      "2021-12-07T07:52:13.748024",
      "2021-12-07T07:52:39.895392",
      "2021-12-07T07:53:06.135509"
    ],
    "values": [
      0.6410636901855469,
      0.6597079634666443,
      0.6638895869255066,
      0.6851320266723633,
      0.6846478581428528,
      0.6868519186973572,
      0.6829946041107178,
      0.6853821277618408,
      0.681183934211731,
      0.6802186965942383,
      0.6888459920883179,
      0.676983654499054,
      0.6796102523803711,
      0.6800944209098816,
      0.6835829615592957,
      0.676066517829895,
      0.6784617900848389,
      0.678765594959259,
      0.6757227778434753,
      0.6732035875320435,
      0.6793129444122314,
      0.6768221855163574,
      0.6764532923698425,
      0.6745241284370422,
      0.6709639430046082,
      0.6722552180290222,
      0.6752035617828369,
      0.6724569201469421,
      0.6723428964614868,
      0.6763773560523987,
      0.6748365759849548,
      0.6752805709838867,
      0.6729503273963928,
      0.6718215346336365,
      0.6714663505554199,
      0.669590175151825,
      0.6675606966018677,
      0.6686354875564575,
      0.6677597165107727,
      0.6616900563240051,
      0.6410039663314819,
      0.6332958340644836,
      0.6308110356330872,
      0.632943868637085,
      0.633057177066803,
      0.6311334371566772,
      0.6306087374687195,
      0.6296029090881348,
      0.626653254032135,
      0.627388060092926,
      0.6263315081596375,
      0.6276102066040039,
      0.6265885829925537,
      0.6241815686225891,
      0.6246551275253296,
      0.6285463571548462,
      0.6243802905082703,
      0.6188393235206604,
      0.6194396018981934,
      0.6177059412002563,
      0.6208855509757996,
      0.6198133230209351,
      0.6122598648071289,
      0.6177241206169128,
      0.6167323589324951,
      0.6197122931480408,
      0.6143364906311035,
      0.6136629581451416,
      0.6084679365158081,
      0.6096916198730469,
      0.6078689694404602,
      0.611029863357544,
      0.6063492298126221,
      0.6060203909873962,
      0.6066004633903503,
      0.6035184860229492,
      0.6033070087432861,
      0.6071428656578064,
      0.6069849729537964,
      0.6019915342330933,
      0.5993897318840027,
      0.6028779149055481,
      0.5972771048545837,
      0.5958412885665894,
      0.602340042591095,
      0.5984402298927307,
      0.6002695560455322,
      0.6004392504692078,
      0.6005381941795349,
      0.6023989319801331,
      0.6036446690559387,
      0.5996412038803101,
      0.6015660166740417,
      0.6015948057174683,
      0.601938784122467,
      0.5962619781494141,
      0.5989614129066467,
      0.5988726615905762,
      0.5922461748123169,
      0.5946829319000244
    ]
  },
  "val_recall": {
    "steps": [
      0,
      1,
      2,
      3,
      4,
      5,
      6,
      7,
      8,
      9,
      10,
      11,
      12,
      13,
      14,
      15,
      16,
      17,
      18,
      19,
      20,
      21,
      22,
      23,
      24,
      25,
      26,
      27,
      28,
      29,
      30,
      31,
      32,
      33,
      34,
      35,
      36,
      37,
      38,
      39,
      40,
      41,
      42,
      43,
      44,
      45,
      46,
      47,
      48,
      49,
      50,
      51,
      52,
      53,
      54,
      55,
      56,
      57,
      58,
      59,
      60,
      61,
      62,
      63,
      64,
      65,
      66,
      67,
      68,
      69,
      70,
      71,
      72,
      73,
      74,
      75,
      76,
      77,
      78,
      79,
      80,
      81,
      82,
      83,
      84,
      85,
      86,
      87,
      88,
      89,
      90,
      91,
      92,
      93,
      94,
      95,
      96,
      97,
      98,
      99
    ],
    "timestamps": [
      "2021-12-07T07:09:50.401507",
      "2021-12-07T07:10:17.294081",
      "2021-12-07T07:10:43.980452",
      "2021-12-07T07:11:10.201613",
      "2021-12-07T07:11:36.436940",
      "2021-12-07T07:12:02.561302",
      "2021-12-07T07:12:28.783461",
      "2021-12-07T07:12:55.032068",
      "2021-12-07T07:13:21.197843",
      "2021-12-07T07:13:47.963006",
      "2021-12-07T07:14:14.861881",
      "2021-12-07T07:14:41.665870",
      "2021-12-07T07:15:08.349050",
      "2021-12-07T07:15:35.135867",
      "2021-12-07T07:16:01.891883",
      "2021-12-07T07:16:28.652611",
      "2021-12-07T07:16:55.373060",
      "2021-12-07T07:17:22.150355",
      "2021-12-07T07:17:48.820898",
      "2021-12-07T07:18:15.009914",
      "2021-12-07T07:18:41.292358",
      "2021-12-07T07:19:07.538075",
      "2021-12-07T07:19:33.699947",
      "2021-12-07T07:19:59.914686",
      "2021-12-07T07:20:26.034618",
      "2021-12-07T07:20:52.216584",
      "2021-12-07T07:21:18.321198",
      "2021-12-07T07:21:44.586076",
      "2021-12-07T07:22:10.784650",
      "2021-12-07T07:22:36.908342",
      "2021-12-07T07:23:03.117870",
      "2021-12-07T07:23:29.281963",
      "2021-12-07T07:23:55.458084",
      "2021-12-07T07:24:21.515881",
      "2021-12-07T07:24:47.671317",
      "2021-12-07T07:25:13.804176",
      "2021-12-07T07:25:39.890027",
      "2021-12-07T07:26:06.049141",
      "2021-12-07T07:26:32.219388",
      "2021-12-07T07:26:58.269594",
      "2021-12-07T07:27:24.465747",
      "2021-12-07T07:27:50.652320",
      "2021-12-07T07:28:16.812014",
      "2021-12-07T07:28:42.969404",
      "2021-12-07T07:29:09.056016",
      "2021-12-07T07:29:35.245901",
      "2021-12-07T07:30:01.391108",
      "2021-12-07T07:30:27.539184",
      "2021-12-07T07:30:53.726605",
      "2021-12-07T07:31:19.923723",
      "2021-12-07T07:31:46.143477",
      "2021-12-07T07:32:12.205601",
      "2021-12-07T07:32:38.332907",
      "2021-12-07T07:33:04.472815",
      "2021-12-07T07:33:30.745822",
      "2021-12-07T07:33:57.008499",
      "2021-12-07T07:34:23.095306",
      "2021-12-07T07:34:49.256519",
      "2021-12-07T07:35:15.448772",
      "2021-12-07T07:35:41.584730",
      "2021-12-07T07:36:07.622726",
      "2021-12-07T07:36:33.730454",
      "2021-12-07T07:36:59.882830",
      "2021-12-07T07:37:25.960241",
      "2021-12-07T07:37:52.098204",
      "2021-12-07T07:38:18.175349",
      "2021-12-07T07:38:44.294085",
      "2021-12-07T07:39:10.396662",
      "2021-12-07T07:39:36.520634",
      "2021-12-07T07:40:02.531349",
      "2021-12-07T07:40:28.599936",
      "2021-12-07T07:40:54.734754",
      "2021-12-07T07:41:20.824099",
      "2021-12-07T07:41:46.926804",
      "2021-12-07T07:42:13.012858",
      "2021-12-07T07:42:39.062693",
      "2021-12-07T07:43:05.155135",
      "2021-12-07T07:43:31.173611",
      "2021-12-07T07:43:57.289954",
      "2021-12-07T07:44:23.346940",
      "2021-12-07T07:44:49.421671",
      "2021-12-07T07:45:15.501144",
      "2021-12-07T07:45:41.608801",
      "2021-12-07T07:46:07.725086",
      "2021-12-07T07:46:33.788729",
      "2021-12-07T07:46:59.959880",
      "2021-12-07T07:47:26.143374",
      "2021-12-07T07:47:52.290418",
      "2021-12-07T07:48:18.430187",
      "2021-12-07T07:48:44.584345",
      "2021-12-07T07:49:10.651229",
      "2021-12-07T07:49:36.839030",
      "2021-12-07T07:50:03.000097",
      "2021-12-07T07:50:29.090080",
      "2021-12-07T07:50:55.194905",
      "2021-12-07T07:51:21.370833",
      "2021-12-07T07:51:47.585594",
      "2021-12-07T07:52:13.748032",
      "2021-12-07T07:52:39.895404",
      "2021-12-07T07:53:06.135520"
    ],
    "values": [
      0.32940417528152466,
      0.3020760118961334,
      0.2990851402282715,
      0.27996715903282166,
      0.29474547505378723,
      0.29134413599967957,
      0.27392682433128357,
      0.2834858000278473,
      0.2834271788597107,
      0.28454139828681946,
      0.2719915509223938,
      0.2821956276893616,
      0.28225427865982056,
      0.27029088139533997,
      0.2756861448287964,
      0.2741613984107971,
      0.27210885286331177,
      0.27087730169296265,
      0.27275392413139343,
      0.2697630822658539,
      0.26671358942985535,
      0.27228477597236633,
      0.270232230424881,
      0.270173579454422,
      0.26859018206596375,
      0.26571664214134216,
      0.267475962638855,
      0.2678864598274231,
      0.26859018206596375,
      0.2627844214439392,
      0.2664203643798828,
      0.26817968487739563,
      0.2637813687324524,
      0.26495426893234253,
      0.26800376176834106,
      0.2596762776374817,
      0.2627257704734802,
      0.25891390442848206,
      0.2627257704734802,
      0.25991085171699524,
      0.2665962874889374,
      0.2641332447528839,
      0.2586206793785095,
      0.2604973018169403,
      0.26436781883239746,
      0.25797560811042786,
      0.2587966322898865,
      0.25568848848342896,
      0.25562983751296997,
      0.2522871196269989,
      0.2586206793785095,
      0.25381186604499817,
      0.2573305070400238,
      0.25158339738845825,
      0.2522871196269989,
      0.25205254554748535,
      0.25111424922943115,
      0.24888576567173004,
      0.25152474641799927,
      0.2532840669155121,
      0.25,
      0.2531667947769165,
      0.24483931064605713,
      0.24894440174102783,
      0.2477128803730011,
      0.25516068935394287,
      0.24325592815876007,
      0.24601219594478607,
      0.24524982273578644,
      0.24349050223827362,
      0.24372507631778717,
      0.2449565976858139,
      0.24642270803451538,
      0.2408515065908432,
      0.2436077892780304,
      0.24343185126781464,
      0.2417898178100586,
      0.24624677002429962,
      0.24155524373054504,
      0.24108609557151794,
      0.24190710484981537,
      0.23832981288433075,
      0.23926812410354614,
      0.23862303793430328,
      0.2385057508945465,
      0.2385057508945465,
      0.23504574596881866,
      0.24049964547157288,
      0.23557354509830475,
      0.2385643869638443,
      0.2331104874610901,
      0.23522166907787323,
      0.23428337275981903,
      0.23891626298427582,
      0.2330518364906311,
      0.23011963069438934,
      0.2367464154958725,
      0.23053014278411865,
      0.23023691773414612,
      0.23481117188930511
    ]
  }
}